2018/04/17 01:54:01 - Logged in from 127.0.0.1 and mac 0A-00-27-00-00-00.
2018/04/17 01:54:01 - Pressed 378, button: 6, button2: 0
2018/04/17 01:54:24 - Pressed 649, button: 4, button2: 0
2018/04/17 01:54:25 - Pressed 269, button: 99, button2: 0
2018/04/17 01:54:27 - Pressed 548, button: 36, button2: 0
2018/04/17 01:54:28 - Pressed 665, button: 15, button2: 0
2018/04/17 01:54:33 - Pressed 548, button: 226, button2: 0
2018/04/17 01:54:40 - Pressed 548, button: 33, button2: 0
2018/04/17 01:54:49 - Equipped item: 1381, into slot: 19, on interface: 149
2018/04/17 01:55:03 - Pressed 671, button: 92, button2: 0
2018/04/17 01:55:04 - Clicked item1 562,17,15,0.
2018/04/17 01:55:06 - Pressed 672, button: 7, button2: 0
2018/04/17 01:55:09 - Pressed 672, button: 8, button2: 0
2018/04/17 01:55:10 - Entered Text(join clan) on interface 100.
2018/04/17 01:55:12 - Pressed 672, button: 23, button2: 0
2018/04/17 01:55:18 - Entered Text(join clan) on interface 101.
2018/04/17 01:55:19 - Pressed 672, button: 36, button2: 0
2018/04/17 01:55:25 - Pressed 548, button: 16, button2: 0
2018/04/17 01:55:26 - Pressed 182, button: 6, button2: 0
2018/04/17 01:59:25 - Logged in from 127.0.0.1 and mac 0A-00-27-00-00-00.
2018/04/17 01:59:25 - Pressed 378, button: 6, button2: 0
2018/04/17 01:59:27 - Pressed 671, button: 17, button2: 0
2018/04/17 02:11:44 - Logged in from 127.0.0.1 and mac 0A-00-27-00-00-00.
2018/04/17 02:11:45 - Pressed 378, button: 6, button2: 0
2018/04/17 02:11:47 - Pressed 671, button: 93, button2: 0
2018/04/17 02:11:50 - Entered Text(join clan) on interface Dragon ch.
2018/04/17 02:11:51 - Pressed 672, button: 36, button2: 0
2018/04/17 02:11:54 - Picked up 1 x Dragon chainbody (2513) at [3166,3485,0],[54,53]. Item owner: Max
2018/04/17 02:11:56 - Pressed 671, button: 96, button2: 0
2018/04/17 02:11:57 - Clicked item1 2513,19,15,0.
2018/04/17 02:11:58 - Pressed 672, button: 23, button2: 0
2018/04/17 02:12:01 - Entered Text(join clan) on interface 620k.
2018/04/17 02:12:02 - Pressed 672, button: 36, button2: 0
2018/04/17 02:12:10 - Pressed 671, button: 17, button2: 0
2018/04/17 02:12:11 - Pressed 674, button: 12, button2: 0
2018/04/17 02:12:12 - Pressed 548, button: 16, button2: 0
2018/04/17 02:12:13 - Pressed 182, button: 6, button2: 0
2018/04/18 21:08:51 - Logged in from 127.0.0.1 and mac 0A-00-27-00-00-00.
2018/04/18 21:08:52 - Pressed 378, button: 6, button2: 0
2018/04/18 21:09:18 - Pressed 649, button: 4, button2: 0
2018/04/18 21:09:20 - Pressed 269, button: 137, button2: 0
2018/04/18 21:09:22 - Pressed 269, button: 121, button2: 0
2018/04/18 21:09:23 - Pressed 269, button: 105, button2: 0
2018/04/18 21:09:23 - Pressed 269, button: 105, button2: 0
2018/04/18 21:09:23 - Pressed 269, button: 105, button2: 0
2018/04/18 21:09:23 - Pressed 269, button: 105, button2: 0
2018/04/18 21:09:23 - Pressed 269, button: 105, button2: 0
2018/04/18 21:09:23 - Pressed 269, button: 105, button2: 0
2018/04/18 21:09:24 - Pressed 269, button: 105, button2: 0
2018/04/18 21:09:24 - Pressed 269, button: 105, button2: 0
2018/04/18 21:09:24 - Pressed 269, button: 105, button2: 0
2018/04/18 21:09:25 - Pressed 269, button: 105, button2: 0
2018/04/18 21:09:26 - Pressed 269, button: 112, button2: 0
2018/04/18 21:09:27 - Pressed 269, button: 121, button2: 0
2018/04/18 21:09:28 - Pressed 269, button: 121, button2: 0
2018/04/18 21:09:28 - Pressed 269, button: 121, button2: 0
2018/04/18 21:09:29 - Pressed 269, button: 121, button2: 0
2018/04/18 21:09:29 - Pressed 269, button: 121, button2: 0
2018/04/18 21:09:30 - Pressed 269, button: 126, button2: 0
2018/04/18 21:09:30 - Pressed 269, button: 126, button2: 0
2018/04/18 21:09:31 - Pressed 269, button: 126, button2: 0
2018/04/18 21:09:31 - Pressed 269, button: 126, button2: 0
2018/04/18 21:09:32 - Pressed 269, button: 126, button2: 0
2018/04/18 21:09:33 - Pressed 269, button: 126, button2: 0
2018/04/18 21:09:34 - Pressed 269, button: 121, button2: 0
2018/04/18 21:09:35 - Pressed 269, button: 121, button2: 0
2018/04/18 21:09:36 - Pressed 269, button: 121, button2: 0
2018/04/18 21:09:37 - Pressed 269, button: 121, button2: 0
2018/04/18 21:09:39 - Pressed 269, button: 127, button2: 0
2018/04/18 21:09:39 - Pressed 269, button: 127, button2: 0
2018/04/18 21:09:40 - Pressed 269, button: 122, button2: 0
2018/04/18 21:09:41 - Pressed 269, button: 114, button2: 0
2018/04/18 21:09:42 - Pressed 269, button: 114, button2: 0
2018/04/18 21:09:43 - Pressed 269, button: 107, button2: 0
2018/04/18 21:09:43 - Pressed 269, button: 108, button2: 0
2018/04/18 21:09:44 - Pressed 269, button: 108, button2: 0
2018/04/18 21:09:45 - Pressed 269, button: 108, button2: 0
2018/04/18 21:09:46 - Pressed 269, button: 108, button2: 0
2018/04/18 21:09:47 - Pressed 269, button: 108, button2: 0
2018/04/18 21:09:48 - Pressed 269, button: 115, button2: 0
2018/04/18 21:09:49 - Pressed 269, button: 129, button2: 0
2018/04/18 21:09:50 - Pressed 269, button: 117, button2: 0
2018/04/18 21:09:51 - Pressed 269, button: 117, button2: 0
2018/04/18 21:09:51 - Pressed 269, button: 117, button2: 0
2018/04/18 21:09:52 - Pressed 269, button: 117, button2: 0
2018/04/18 21:09:54 - Pressed 269, button: 129, button2: 0
2018/04/18 21:09:55 - Pressed 269, button: 129, button2: 0
2018/04/18 21:09:55 - Pressed 269, button: 129, button2: 0
2018/04/18 21:09:56 - Pressed 269, button: 129, button2: 0
2018/04/18 21:09:57 - Pressed 269, button: 129, button2: 0
2018/04/18 21:09:58 - Pressed 269, button: 129, button2: 0
2018/04/18 21:10:00 - Pressed 269, button: 128, button2: 0
2018/04/18 21:10:01 - Pressed 269, button: 128, button2: 0
2018/04/18 21:10:01 - Pressed 269, button: 128, button2: 0
2018/04/18 21:10:02 - Pressed 269, button: 128, button2: 0
2018/04/18 21:10:03 - Pressed 269, button: 128, button2: 0
2018/04/18 21:10:04 - Pressed 269, button: 128, button2: 0
2018/04/18 21:10:05 - Pressed 269, button: 128, button2: 0
2018/04/18 21:10:08 - Pressed 269, button: 122, button2: 0
2018/04/18 21:10:09 - Pressed 269, button: 122, button2: 0
2018/04/18 21:10:10 - Pressed 269, button: 122, button2: 0
2018/04/18 21:10:11 - Pressed 269, button: 122, button2: 0
2018/04/18 21:10:11 - Pressed 269, button: 122, button2: 0
2018/04/18 21:10:13 - Pressed 269, button: 99, button2: 0
2018/04/18 21:10:15 - Closed Interface: 275
2018/04/18 21:10:33 - Used command tele 3100 3500
2018/04/18 21:10:43 - Pressed 548, button: 36, button2: 0
2018/04/18 21:10:44 - Pressed 548, button: 35, button2: 0
2018/04/18 21:10:45 - Pressed 548, button: 36, button2: 0
2018/04/18 21:10:47 - Pressed 665, button: 15, button2: 0
2018/04/18 21:10:48 - Pressed 548, button: 33, button2: 0
2018/04/18 21:10:52 - Pressed 548, button: 226, button2: 0
2018/04/18 21:11:29 - Used command item 20997 2
2018/04/18 21:11:32 - Pressed 671, button: 96, button2: 0
2018/04/18 21:11:33 - Clicked item1 20997,1,15,0.
2018/04/18 21:11:34 - Pressed 672, button: 23, button2: 0
2018/04/18 21:11:37 - Entered Text(join clan) on interface 100m.
2018/04/18 21:11:38 - Pressed 672, button: 23, button2: 0
2018/04/18 21:11:40 - Entered Text(join clan) on interface 1000m.
2018/04/18 21:11:43 - Pressed 672, button: 36, button2: 0
2018/04/18 21:11:45 - Pressed 671, button: 19, button2: 0
2018/04/18 21:11:48 - Pressed 674, button: 12, button2: 0
2018/04/18 21:12:57 - Pressed 671, button: 19, button2: 0
2018/04/18 21:13:00 - Pressed 674, button: 12, button2: 0
2018/04/18 21:13:09 - Used command item 995 2100000000
2018/04/18 21:13:13 - Pressed 671, button: 93, button2: 0
2018/04/18 21:13:15 - Entered Text(join clan) on interface Twisted bow.
2018/04/18 21:13:16 - Pressed 672, button: 23, button2: 0
2018/04/18 21:13:20 - Entered Text(join clan) on interface 1200m.
2018/04/18 21:13:22 - Pressed 672, button: 36, button2: 0
2018/04/18 21:13:25 - Pressed 671, button: 18, button2: 0
2018/04/18 21:13:27 - Pressed 674, button: 12, button2: 0
2018/04/18 21:13:32 - Pressed 671, button: 18, button2: 0
2018/04/18 21:13:33 - Pressed 674, button: 12, button2: 0
2018/04/18 21:13:34 - Pressed 671, button: 19, button2: 0
2018/04/18 21:13:35 - Pressed 674, button: 12, button2: 0
2018/04/18 21:13:36 - Pressed 671, button: 18, button2: 0
2018/04/18 21:13:37 - Clicked item1 20997,0,674,13.
2018/04/18 21:13:39 - Pressed 671, button: 93, button2: 0
2018/04/18 21:13:41 - Pressed 672, button: 33, button2: 0
2018/04/18 21:13:49 - Entered Text(join clan) on interface Dragonfire sh.
2018/04/18 21:13:50 - Pressed 671, button: 91, button2: 0
2018/04/18 21:13:53 - Entered Text(join clan) on interface Dragonfire S.
2018/04/18 21:13:55 - Pressed 672, button: 2, button2: 0
2018/04/18 21:13:57 - Entered Text(join clan) on interface Dragonfire shi.
2018/04/18 21:13:59 - Pressed 672, button: 23, button2: 0
2018/04/18 21:14:01 - Entered Text(join clan) on interface 20m.
2018/04/18 21:14:02 - Pressed 672, button: 36, button2: 0
2018/04/18 21:14:21 - Pressed 671, button: 17, button2: 0
2018/04/18 21:14:22 - Pressed 674, button: 12, button2: 0
2018/04/18 21:14:25 - Pressed 671, button: 19, button2: 0
2018/04/18 21:14:27 - Pressed 674, button: 12, button2: 0
