2018/04/19 11:54:42 - Logged in from 127.0.0.1 and mac 0A-00-27-00-00-00.
2018/04/19 11:54:43 - Pressed 378, button: 6, button2: 0
2018/04/19 11:54:49 - Pressed 548, button: 34, button2: 0
2018/04/19 11:54:49 - Pressed 548, button: 33, button2: 0
2018/04/19 11:54:52 - Pressed 548, button: 101, button2: 0
2018/04/19 11:54:53 - Pressed 548, button: 31, button2: 0
2018/04/19 11:54:54 - Pressed 548, button: 32, button2: 0
2018/04/19 11:54:55 - Pressed 548, button: 34, button2: 0
2018/04/19 11:54:56 - Pressed 657, button: 17, button2: 0
2018/04/19 11:55:08 - Pressed 649, button: 4, button2: 0
2018/04/19 11:55:10 - Pressed 269, button: 99, button2: 0
2018/04/19 11:55:11 - Pressed 548, button: 33, button2: 0
2018/04/19 11:55:11 - Closed Interface: 275
2018/04/19 11:55:13 - Pressed 548, button: 36, button2: 0
2018/04/19 11:55:15 - Pressed 665, button: 15, button2: 0
2018/04/19 11:55:23 - Pressed 548, button: 226, button2: 0
2018/04/19 11:55:48 - Click2 npc: 2148, at location: [3165,3488,0],[53,48]
2018/04/19 11:55:55 - Pressed 671, button: 87, button2: 0
2018/04/19 11:55:57 - Pressed 671, button: 87, button2: 0
2018/04/19 11:56:02 - Pressed 548, button: 101, button2: 0
2018/04/19 11:56:04 - Pressed 548, button: 16, button2: 0
2018/04/19 11:56:04 - Pressed 182, button: 6, button2: 0
