2018/04/16 21:15:37 - Logged in from 127.0.0.1 and mac 0A-00-27-00-00-00.
2018/04/16 21:15:38 - Pressed 378, button: 6, button2: 0
2018/04/16 21:15:39 - Pressed 548, button: 16, button2: 0
2018/04/16 21:15:40 - Pressed 182, button: 6, button2: 0
