2018/05/03 10:40:57 - Logged in from 127.0.0.1 and mac 0A-00-27-00-00-00.
2018/05/03 10:40:58 - Pressed 378, button: 6, button2: 0
2018/05/03 10:41:22 - Pressed 649, button: 4, button2: 0
2018/05/03 10:41:27 - Pressed 269, button: 106, button2: 0
2018/05/03 10:41:28 - Pressed 269, button: 106, button2: 0
2018/05/03 10:41:29 - Pressed 269, button: 113, button2: 0
2018/05/03 10:41:30 - Pressed 269, button: 105, button2: 0
2018/05/03 10:41:31 - Pressed 269, button: 105, button2: 0
2018/05/03 10:41:31 - Pressed 269, button: 105, button2: 0
2018/05/03 10:41:32 - Pressed 269, button: 105, button2: 0
2018/05/03 10:41:33 - Pressed 269, button: 105, button2: 0
2018/05/03 10:41:33 - Pressed 269, button: 105, button2: 0
2018/05/03 10:41:33 - Pressed 269, button: 105, button2: 0
2018/05/03 10:41:34 - Pressed 269, button: 105, button2: 0
2018/05/03 10:41:36 - Pressed 269, button: 112, button2: 0
2018/05/03 10:41:38 - Pressed 269, button: 105, button2: 0
2018/05/03 10:41:39 - Pressed 269, button: 122, button2: 0
2018/05/03 10:41:40 - Pressed 269, button: 122, button2: 0
2018/05/03 10:41:40 - Pressed 269, button: 123, button2: 0
2018/05/03 10:41:40 - Pressed 269, button: 123, button2: 0
2018/05/03 10:41:40 - Pressed 269, button: 123, button2: 0
2018/05/03 10:41:40 - Pressed 269, button: 123, button2: 0
2018/05/03 10:41:41 - Pressed 269, button: 105, button2: 0
2018/05/03 10:41:42 - Pressed 269, button: 105, button2: 0
2018/05/03 10:41:42 - Pressed 269, button: 105, button2: 0
2018/05/03 10:41:43 - Pressed 269, button: 105, button2: 0
2018/05/03 10:41:44 - Pressed 269, button: 105, button2: 0
2018/05/03 10:41:45 - Pressed 269, button: 112, button2: 0
2018/05/03 10:41:45 - Pressed 269, button: 121, button2: 0
2018/05/03 10:41:47 - Pressed 269, button: 126, button2: 0
2018/05/03 10:41:47 - Pressed 269, button: 126, button2: 0
2018/05/03 10:41:48 - Pressed 269, button: 126, button2: 0
2018/05/03 10:41:50 - Pressed 269, button: 126, button2: 0
2018/05/03 10:41:51 - Pressed 269, button: 127, button2: 0
2018/05/03 10:41:52 - Pressed 269, button: 128, button2: 0
2018/05/03 10:41:52 - Pressed 269, button: 128, button2: 0
2018/05/03 10:41:53 - Pressed 269, button: 128, button2: 0
2018/05/03 10:41:54 - Pressed 269, button: 123, button2: 0
2018/05/03 10:41:56 - Pressed 269, button: 99, button2: 0
2018/05/03 10:41:58 - Closed Interface: 275
2018/05/03 10:42:01 - Pressed 548, button: 36, button2: 0
2018/05/03 10:42:02 - Pressed 665, button: 0, button2: 0
2018/05/03 10:42:02 - Pressed 548, button: 33, button2: 0
2018/05/03 10:42:04 - Used command master
2018/05/03 10:42:10 - Used command item 995 2100000000
2018/05/03 10:42:13 - Click1 npc: 4398, at location: [3088,3488,0],[48,48]
2018/05/03 10:42:22 - Used command item 861 1
2018/05/03 10:42:27 - Used command item 892 10000
2018/05/03 10:42:28 - Equipped item: 861, into slot: 1, on inter: 149
2018/05/03 10:42:28 - Equipped item: 892, into slot: 2, on inter: 149
2018/05/03 10:42:30 - Pressed 548, button: 16, button2: 0
2018/05/03 10:42:30 - Pressed 182, button: 6, button2: 0
2018/05/03 10:42:33 - Logged in from 127.0.0.1 and mac 0A-00-27-00-00-00.
2018/05/03 10:42:33 - Pressed 378, button: 6, button2: 0
2018/05/03 10:42:38 - Pressed 548, button: 226, button2: 0
2018/05/03 10:42:39 - Pressed 548, button: 30, button2: 0
2018/05/03 10:42:44 - Attacked npc: 2042, at location: [82,89,0],[50,49]
2018/05/03 10:42:46 - Attacked npc: 2042, at location: [82,89,0],[50,49]
2018/05/03 10:42:52 - Pressed 548, button: 35, button2: 0
2018/05/03 10:42:53 - Pressed 271, button: 39, button2: 0
2018/05/03 10:43:20 - Pressed 271, button: 41, button2: 0
2018/05/03 10:43:50 - Pressed 271, button: 37, button2: 0
2018/05/03 10:43:51 - Attacked npc: 2042, at location: [82,89,0],[50,49]
2018/05/03 10:44:29 - Pressed 548, button: 30, button2: 0
2018/05/03 10:44:42 - Pressed 548, button: 33, button2: 0
2018/05/03 10:44:49 - Pressed 548, button: 35, button2: 0
2018/05/03 10:44:50 - Pressed 271, button: 41, button2: 0
2018/05/03 10:44:51 - Attacked npc: 2042, at location: [82,89,0],[50,49]
2018/05/03 10:44:52 - Pressed 548, button: 30, button2: 0
2018/05/03 10:46:49 - Logged in from 127.0.0.1 and mac 0A-00-27-00-00-00.
2018/05/03 10:46:49 - Pressed 378, button: 6, button2: 0
2018/05/03 10:46:53 - Used command tele 2200 3055
2018/05/03 10:46:55 - Pressed 548, button: 226, button2: 0
2018/05/03 10:46:57 - Pressed 548, button: 30, button2: 0
2018/05/03 10:46:57 - Pressed 548, button: 224, button2: 0
2018/05/03 10:46:57 - Pressed 548, button: 226, button2: 0
2018/05/03 10:47:03 - Pressed 548, button: 32, button2: 0
2018/05/03 10:47:04 - Pressed 548, button: 33, button2: 0
2018/05/03 10:47:05 - Attacked npc: 2042, at location: [82,89,0],[50,49]
2018/05/03 10:47:06 - Pressed 548, button: 30, button2: 0
2018/05/03 10:47:08 - Attacked npc: 2042, at location: [82,89,0],[50,49]
2018/05/03 10:47:11 - Pressed 548, button: 35, button2: 0
2018/05/03 10:47:12 - Pressed 271, button: 43, button2: 0
2018/05/03 10:47:14 - Attacked npc: 2042, at location: [82,89,0],[50,49]
2018/05/03 10:47:25 - Attacked npc: 2042, at location: [82,89,0],[50,49]
2018/05/03 10:48:58 - Logged in from 127.0.0.1 and mac 0A-00-27-00-00-00.
2018/05/03 10:48:59 - Pressed 378, button: 6, button2: 0
2018/05/03 10:49:05 - Used command tele 2200 3055
2018/05/03 10:49:09 - Pressed 548, button: 31, button2: 0
2018/05/03 10:49:09 - Pressed 548, button: 30, button2: 0
2018/05/03 10:49:16 - Attacked npc: 2042, at location: [82,89,0],[50,49]
2018/05/03 10:49:18 - Attacked npc: 2042, at location: [82,89,0],[50,49]
2018/05/03 10:49:20 - Pressed 548, button: 35, button2: 0
2018/05/03 10:49:20 - Pressed 271, button: 43, button2: 0
2018/05/03 10:49:55 - Pressed 271, button: 41, button2: 0
2018/05/03 10:50:25 - Logged in from 127.0.0.1 and mac 0A-00-27-00-00-00.
2018/05/03 10:50:26 - Pressed 378, button: 6, button2: 0
2018/05/03 10:50:30 - Used command tele 2200 3055
2018/05/03 10:50:33 - Pressed 548, button: 30, button2: 0
2018/05/03 10:50:35 - Pressed 548, button: 16, button2: 0
2018/05/03 10:50:35 - Pressed 182, button: 6, button2: 0
2018/05/03 10:50:37 - Logged in from 127.0.0.1 and mac 0A-00-27-00-00-00.
2018/05/03 10:50:37 - Pressed 378, button: 6, button2: 0
2018/05/03 10:51:09 - Attacked npc: 2042, at location: [82,89,0],[50,49]
2018/05/03 10:52:27 - Logged in from 127.0.0.1 and mac 0A-00-27-00-00-00.
2018/05/03 10:52:28 - Pressed 378, button: 6, button2: 0
2018/05/03 10:52:33 - Pressed 548, button: 226, button2: 0
2018/05/03 10:52:35 - Pressed 548, button: 226, button2: 0
2018/05/03 10:52:37 - Attacked npc: 2042, at location: [82,89,0],[50,49]
2018/05/03 10:52:37 - Pressed 548, button: 30, button2: 0
2018/05/03 10:52:39 - Attacked npc: 2042, at location: [82,89,0],[50,49]
2018/05/03 10:52:42 - Attacked npc: 2042, at location: [82,89,0],[50,49]
2018/05/03 10:53:14 - Attacked npc: 2042, at location: [82,89,0],[50,49]
2018/05/03 10:53:15 - Pressed 548, button: 34, button2: 0
2018/05/03 10:53:15 - Pressed 548, button: 35, button2: 0
2018/05/03 10:53:16 - Pressed 271, button: 41, button2: 0
2018/05/03 10:54:49 - Logged in from 127.0.0.1 and mac 0A-00-27-00-00-00.
2018/05/03 10:54:49 - Pressed 378, button: 6, button2: 0
2018/05/03 10:54:55 - Pressed 548, button: 226, button2: 0
2018/05/03 10:54:56 - Pressed 548, button: 226, button2: 0
2018/05/03 10:54:57 - Pressed 548, button: 35, button2: 0
2018/05/03 10:54:57 - Pressed 271, button: 43, button2: 0
2018/05/03 10:54:58 - Pressed 548, button: 30, button2: 0
2018/05/03 10:55:00 - Attacked npc: 2042, at location: [82,89,0],[50,49]
2018/05/03 10:55:03 - Pressed 548, button: 101, button2: 0
2018/05/03 10:55:04 - Pressed 548, button: 101, button2: 0
2018/05/03 10:55:05 - Pressed 548, button: 101, button2: 0
2018/05/03 10:55:05 - Pressed 548, button: 101, button2: 0
2018/05/03 10:55:05 - Pressed 548, button: 101, button2: 0
2018/05/03 10:55:05 - Pressed 548, button: 101, button2: 0
2018/05/03 10:55:06 - Pressed 548, button: 101, button2: 0
2018/05/03 10:55:08 - Pressed 548, button: 101, button2: 0
2018/05/03 10:55:09 - Pressed 548, button: 101, button2: 0
2018/05/03 10:55:09 - Pressed 548, button: 101, button2: 0
2018/05/03 10:55:09 - Pressed 548, button: 101, button2: 0
2018/05/03 10:55:09 - Pressed 548, button: 101, button2: 0
2018/05/03 10:55:10 - Pressed 548, button: 101, button2: 0
2018/05/03 10:55:10 - Pressed 548, button: 101, button2: 0
2018/05/03 10:55:10 - Pressed 548, button: 101, button2: 0
2018/05/03 10:55:10 - Pressed 548, button: 101, button2: 0
2018/05/03 10:55:27 - Pressed 548, button: 35, button2: 0
2018/05/03 10:55:28 - Pressed 271, button: 41, button2: 0
2018/05/03 10:55:29 - Attacked npc: 2042, at location: [82,89,0],[50,49]
2018/05/03 10:56:09 - Logged in from 127.0.0.1 and mac 0A-00-27-00-00-00.
2018/05/03 10:56:10 - Pressed 378, button: 6, button2: 0
2018/05/03 10:56:15 - Pressed 548, button: 30, button2: 0
2018/05/03 10:56:22 - Attacked npc: 2042, at location: [82,89,0],[50,49]
2018/05/03 10:56:24 - Attacked npc: 2042, at location: [82,89,0],[50,49]
2018/05/03 10:56:28 - Pressed 548, button: 35, button2: 0
2018/05/03 10:57:36 - Logged in from 127.0.0.1 and mac 0A-00-27-00-00-00.
2018/05/03 10:57:37 - Pressed 378, button: 6, button2: 0
2018/05/03 10:57:38 - Pressed 548, button: 35, button2: 0
2018/05/03 10:57:39 - Pressed 271, button: 41, button2: 0
2018/05/03 10:57:40 - Pressed 271, button: 39, button2: 0
2018/05/03 10:57:43 - Pressed 548, button: 30, button2: 0
2018/05/03 10:57:45 - Attacked npc: 2042, at location: [82,89,0],[50,49]
2018/05/03 10:57:46 - Pressed 548, button: 35, button2: 0
2018/05/03 10:57:47 - Pressed 271, button: 43, button2: 0
2018/05/03 10:57:48 - Attacked npc: 2042, at location: [82,89,0],[50,49]
2018/05/03 10:57:49 - Pressed 548, button: 33, button2: 0
2018/05/03 10:58:18 - Pressed 548, button: 35, button2: 0
2018/05/03 10:58:19 - Pressed 271, button: 41, button2: 0
2018/05/03 10:58:19 - Attacked npc: 2042, at location: [82,89,0],[50,49]
2018/05/03 10:58:21 - Pressed 548, button: 33, button2: 0
2018/05/03 10:58:49 - Pressed 548, button: 30, button2: 0
2018/05/03 10:59:44 - Logged in from 127.0.0.1 and mac 0A-00-27-00-00-00.
2018/05/03 10:59:44 - Pressed 378, button: 6, button2: 0
2018/05/03 10:59:46 - Pressed 548, button: 35, button2: 0
2018/05/03 10:59:48 - Pressed 271, button: 39, button2: 0
2018/05/03 10:59:56 - Attacked npc: 2042, at location: [82,89,0],[50,49]
2018/05/03 11:00:01 - Pressed 271, button: 43, button2: 0
2018/05/03 11:00:02 - Pressed 548, button: 30, button2: 0
2018/05/03 11:00:03 - Attacked npc: 2042, at location: [82,89,0],[50,49]
2018/05/03 11:00:59 - Logged in from 127.0.0.1 and mac 0A-00-27-00-00-00.
2018/05/03 11:01:00 - Pressed 378, button: 6, button2: 0
2018/05/03 11:01:00 - Pressed 548, button: 224, button2: 0
2018/05/03 11:01:07 - Pressed 548, button: 30, button2: 0
2018/05/03 11:01:08 - Attacked npc: 2042, at location: [82,89,0],[50,49]
2018/05/03 11:01:21 - Pressed 548, button: 33, button2: 0
2018/05/03 11:01:24 - Pressed 548, button: 30, button2: 0
2018/05/03 11:01:27 - Pressed 548, button: 33, button2: 0
2018/05/03 11:01:27 - Attacked npc: 2042, at location: [82,89,0],[50,49]
2018/05/03 11:02:59 - Logged in from 127.0.0.1 and mac 0A-00-27-00-00-00.
2018/05/03 11:03:00 - Pressed 378, button: 6, button2: 0
2018/05/03 11:03:02 - Pressed 548, button: 35, button2: 0
2018/05/03 11:03:03 - Pressed 271, button: 39, button2: 0
2018/05/03 11:03:08 - Pressed 548, button: 30, button2: 0
2018/05/03 11:03:09 - Attacked npc: 2042, at location: [82,89,0],[50,49]
2018/05/03 11:03:11 - Pressed 548, button: 33, button2: 0
2018/05/03 11:03:37 - Pressed 548, button: 35, button2: 0
2018/05/03 11:03:39 - Pressed 271, button: 41, button2: 0
2018/05/03 11:04:09 - Logged in from 127.0.0.1 and mac 0A-00-27-00-00-00.
2018/05/03 11:04:10 - Pressed 378, button: 6, button2: 0
2018/05/03 11:04:11 - Pressed 548, button: 35, button2: 0
2018/05/03 11:04:12 - Pressed 271, button: 51, button2: 0
2018/05/03 11:04:37 - Attacked npc: 2042, at location: [82,89,0],[50,49]
2018/05/03 11:04:38 - Pressed 548, button: 30, button2: 0
2018/05/03 11:04:40 - Attacked npc: 2042, at location: [82,89,0],[50,49]
2018/05/03 11:04:41 - Pressed 548, button: 33, button2: 0
2018/05/03 11:04:48 - Pressed 548, button: 34, button2: 0
2018/05/03 11:04:48 - Pressed 548, button: 35, button2: 0
2018/05/03 11:04:51 - Pressed 271, button: 41, button2: 0
2018/05/03 11:06:14 - Logged in from 127.0.0.1 and mac 0A-00-27-00-00-00.
2018/05/03 11:06:15 - Pressed 378, button: 6, button2: 0
2018/05/03 11:06:54 - Pressed 548, button: 35, button2: 0
2018/05/03 11:06:56 - Attacked npc: 2042, at location: [82,89,0],[50,49]
2018/05/03 11:06:57 - Pressed 271, button: 41, button2: 0
2018/05/03 11:06:57 - Attacked npc: 2042, at location: [82,89,0],[50,49]
2018/05/03 11:09:58 - Logged in from 127.0.0.1 and mac 0A-00-27-00-00-00.
2018/05/03 11:09:58 - Pressed 378, button: 6, button2: 0
2018/05/03 11:10:02 - Used command tele 2200 3055
2018/05/03 11:10:12 - Pressed 548, button: 35, button2: 0
2018/05/03 11:10:13 - Attacked npc: 2042, at location: [82,89,0],[50,49]
2018/05/03 11:10:15 - Attacked npc: 2042, at location: [82,89,0],[50,49]
2018/05/03 11:10:21 - Pressed 271, button: 43, button2: 0
2018/05/03 11:10:21 - Pressed 548, button: 30, button2: 0
2018/05/03 11:10:23 - Attacked npc: 2042, at location: [82,89,0],[50,49]
2018/05/03 11:10:40 - Pressed 548, button: 35, button2: 0
2018/05/03 11:10:41 - Pressed 271, button: 39, button2: 0
2018/05/03 11:10:49 - Pressed 271, button: 41, button2: 0
2018/05/03 11:10:50 - Attacked npc: 2042, at location: [82,89,0],[50,49]
2018/05/03 11:11:24 - Pressed 271, button: 37, button2: 0
2018/05/03 11:11:24 - Attacked npc: 2042, at location: [82,89,0],[50,49]
2018/05/03 11:13:00 - Attacked npc: 2042, at location: [73,85,0],[49,53]
2018/05/03 11:13:03 - Attacked npc: 2042, at location: [73,85,0],[49,53]
2018/05/03 11:13:04 - Attacked npc: 2042, at location: [73,85,0],[49,53]
2018/05/03 11:13:09 - Pressed 548, button: 36, button2: 0
2018/05/03 11:13:10 - Pressed 665, button: 0, button2: 0
2018/05/03 11:13:10 - Pressed 548, button: 33, button2: 0
2018/05/03 11:13:20 - Pressed 182, button: 6, button2: 0
2018/05/03 22:22:09 - Logged in from 127.0.0.1 and mac 0A-00-27-00-00-00.
2018/05/03 22:22:12 - Pressed 378, button: 6, button2: 0
2018/05/03 22:22:14 - Click1 npc: 4398, at location: [3089,3487,0],[49,55]
2018/05/03 22:22:15 - Pressed 548, button: 34, button2: 0
2018/05/03 22:22:17 - Click1 npc: 4398, at location: [3090,3487,0],[50,55]
2018/05/03 22:22:21 - Pressed 548, button: 33, button2: 0
2018/05/03 22:22:37 - Pressed 548, button: 35, button2: 0
2018/05/03 22:22:44 - Pressed 271, button: 39, button2: 0
2018/05/03 22:22:44 - Pressed 548, button: 33, button2: 0
2018/05/03 22:22:45 - Attacked npc: 2042, at location: [82,89,0],[50,49]
2018/05/03 22:22:46 - Pressed 548, button: 30, button2: 0
2018/05/03 22:22:48 - Attacked npc: 2042, at location: [82,89,0],[50,49]
2018/05/03 22:22:51 - Attacked npc: 2042, at location: [82,89,0],[50,49]
2018/05/03 22:22:56 - Attacked npc: 2042, at location: [82,89,0],[50,49]
2018/05/03 22:22:59 - Attacked npc: 2042, at location: [82,89,0],[50,49]
2018/05/03 22:23:00 - Pressed 548, button: 35, button2: 0
2018/05/03 22:23:00 - Pressed 271, button: 43, button2: 0
2018/05/03 22:23:01 - Pressed 548, button: 32, button2: 0
2018/05/03 22:23:02 - Pressed 548, button: 33, button2: 0
2018/05/03 22:23:06 - Pressed 548, button: 35, button2: 0
2018/05/03 22:23:11 - Pressed 271, button: 41, button2: 0
2018/05/03 22:23:12 - Pressed 548, button: 33, button2: 0
2018/05/03 22:23:16 - Used command item 391 10
2018/05/03 22:23:17 - Clicked item: 391, on inter: 149, in slot: 6.
2018/05/03 22:23:18 - Clicked item: 391, on inter: 149, in slot: 10.
2018/05/03 22:23:18 - Clicked item: 391, on inter: 149, in slot: 10.
2018/05/03 22:23:18 - Clicked item: 391, on inter: 149, in slot: 10.
2018/05/03 22:23:18 - Clicked item: 391, on inter: 149, in slot: 10.
2018/05/03 22:23:19 - Attacked npc: 2042, at location: [82,89,0],[50,49]
2018/05/03 22:23:22 - Attacked npc: 2042, at location: [82,89,0],[50,49]
2018/05/03 22:23:22 - Attacked npc: 2042, at location: [82,89,0],[50,49]
2018/05/03 22:23:24 - Clicked item: 391, on inter: 149, in slot: 8.
2018/05/03 22:23:28 - Attacked npc: 2042, at location: [82,89,0],[50,49]
2018/05/03 22:23:29 - Clicked item: 391, on inter: 149, in slot: 5.
2018/05/03 22:23:30 - Attacked npc: 2042, at location: [82,89,0],[50,49]
2018/05/03 22:23:35 - Clicked item: 391, on inter: 149, in slot: 9.
2018/05/03 22:23:36 - Attacked npc: 2042, at location: [82,89,0],[50,49]
2018/05/03 22:23:40 - Attacked npc: 2042, at location: [82,89,0],[50,49]
2018/05/03 22:23:41 - Clicked item: 391, on inter: 149, in slot: 1.
2018/05/03 22:23:42 - Attacked npc: 2042, at location: [82,89,0],[50,49]
2018/05/03 22:23:45 - Attacked npc: 2042, at location: [82,89,0],[50,49]
2018/05/03 22:23:45 - Pressed 548, button: 35, button2: 0
2018/05/03 22:23:47 - Pressed 271, button: 37, button2: 0
2018/05/03 22:23:47 - Attacked npc: 2042, at location: [82,89,0],[50,49]
2018/05/03 22:25:23 - Logged in from 127.0.0.1 and mac 0A-00-27-00-00-00.
2018/05/03 22:25:27 - Attacked npc: 2042, at location: [82,89,0],[50,49]
2018/05/03 22:25:33 - Used command tele 2200 3055
2018/05/03 22:25:35 - Pressed 548, button: 16, button2: 0
2018/05/03 22:25:36 - Pressed 182, button: 6, button2: 0
2018/05/03 22:25:38 - Pressed 182, button: 6, button2: 0
2018/05/03 22:25:38 - Pressed 182, button: 6, button2: 0
2018/05/03 22:25:41 - Pressed 182, button: 6, button2: 0
2018/05/03 22:25:42 - Pressed 182, button: 6, button2: 0
2018/05/03 22:25:43 - Pressed 182, button: 6, button2: 0
2018/05/03 22:25:43 - Pressed 182, button: 6, button2: 0
2018/05/03 22:28:02 - Logged in from 127.0.0.1 and mac 0A-00-27-00-00-00.
2018/05/03 22:28:03 - Pressed 378, button: 6, button2: 0
2018/05/03 22:28:11 - Pressed 548, button: 30, button2: 0
2018/05/03 22:28:11 - Attacked npc: 2042, at location: [82,89,0],[50,49]
2018/05/03 22:28:13 - Attacked npc: 2042, at location: [82,89,0],[50,49]
2018/05/03 22:28:14 - Pressed 548, button: 34, button2: 0
2018/05/03 22:28:15 - Pressed 548, button: 35, button2: 0
2018/05/03 22:28:17 - Pressed 271, button: 43, button2: 0
2018/05/03 22:28:18 - Attacked npc: 2042, at location: [82,89,0],[50,49]
2018/05/03 22:28:21 - Pressed 548, button: 33, button2: 0
2018/05/03 22:28:39 - Pressed 548, button: 35, button2: 0
2018/05/03 22:28:43 - Pressed 271, button: 39, button2: 0
2018/05/03 22:28:44 - Pressed 271, button: 39, button2: 0
2018/05/03 22:28:51 - Used command master
2018/05/03 22:28:53 - Pressed 271, button: 39, button2: 0
2018/05/03 22:28:55 - Pressed 271, button: 41, button2: 0
2018/05/03 22:29:15 - Pressed 271, button: 37, button2: 0
2018/05/03 22:29:16 - Attacked npc: 2042, at location: [82,89,0],[50,49]
2018/05/03 22:29:18 - Attacked npc: 2042, at location: [82,89,0],[50,49]
2018/05/03 22:29:28 - Pressed 548, button: 33, button2: 0
2018/05/03 22:29:29 - Clicked item: 391, on inter: 149, in slot: 2.
2018/05/03 22:29:30 - Attacked npc: 2042, at location: [82,89,0],[50,49]
2018/05/03 22:29:34 - Pressed 548, button: 33, button2: 0
2018/05/03 22:29:34 - Pressed 548, button: 30, button2: 0
2018/05/03 22:29:35 - Pressed 548, button: 31, button2: 0
2018/05/03 22:29:36 - Pressed 548, button: 32, button2: 0
2018/05/03 22:29:37 - Pressed 548, button: 33, button2: 0
2018/05/03 22:29:38 - Clicked item: 391, on inter: 149, in slot: 4.
2018/05/03 22:29:39 - Attacked npc: 2042, at location: [82,89,0],[50,49]
2018/05/03 22:29:50 - Attacked npc: 2042, at location: [81,78,0],[49,54]
2018/05/03 22:29:53 - Attacked npc: 2042, at location: [81,78,0],[49,54]
2018/05/03 22:30:22 - Attacked npc: 2042, at location: [82,89,0],[50,49]
2018/05/03 22:30:24 - Attacked npc: 2042, at location: [82,89,0],[50,49]
2018/05/03 22:30:25 - Pressed 548, button: 35, button2: 0
2018/05/03 22:30:26 - Pressed 271, button: 41, button2: 0
2018/05/03 22:30:27 - Attacked npc: 2042, at location: [82,89,0],[50,49]
2018/05/03 22:30:29 - Attacked npc: 2042, at location: [82,89,0],[50,49]
2018/05/03 22:30:34 - Attacked npc: 2042, at location: [82,89,0],[50,49]
2018/05/03 22:33:06 - Pressed 271, button: 41, button2: 0
2018/05/03 22:33:24 - Pressed 548, button: 34, button2: 0
2018/05/03 22:33:26 - Pressed 548, button: 36, button2: 0
2018/05/03 22:33:29 - Pressed 548, button: 31, button2: 0
2018/05/03 22:33:30 - Pressed 320, button: 132, button2: 0
2018/05/03 22:33:31 - Pressed 320, button: 135, button2: 0
2018/05/03 22:33:31 - Pressed 320, button: 130, button2: 0
2018/05/03 22:33:33 - Closed Interface: 499
2018/05/03 22:33:34 - Pressed 548, button: 101, button2: 0
2018/05/03 22:33:34 - Pressed 548, button: 101, button2: 0
2018/05/03 22:33:35 - Pressed 548, button: 101, button2: 0
2018/05/03 22:33:37 - Pressed 548, button: 226, button2: 0
2018/05/03 22:33:38 - Pressed 548, button: 226, button2: 0
2018/05/03 22:33:38 - Pressed 548, button: 224, button2: 0
2018/05/03 22:33:39 - Pressed 548, button: 34, button2: 0
2018/05/03 22:33:40 - Pressed 387, button: 50, button2: 0
2018/05/03 22:33:40 - Pressed 548, button: 35, button2: 0
2018/05/03 22:33:41 - Pressed 548, button: 36, button2: 0
2018/05/03 22:33:50 - Pressed 665, button: 0, button2: 0
2018/05/03 22:33:54 - Pressed 548, button: 33, button2: 0
2018/05/03 22:33:56 - Pressed 548, button: 16, button2: 0
2018/05/03 22:34:04 - Pressed 12, button: 119, button2: 0
2018/05/03 22:34:04 - Banked 2099994000 x Coins (995)
2018/05/03 22:34:04 - Banked 1 x Manta ray (391)
2018/05/03 22:34:04 - Banked 1 x Manta ray (391)
2018/05/03 22:34:04 - Banked 1 x Manta ray (391)
2018/05/03 22:34:06 - Closed Interface: 12
2018/05/03 22:34:07 - Pressed 548, button: 34, button2: 0
2018/05/03 22:34:08 - Pressed 548, button: 33, button2: 0
2018/05/03 22:34:10 - Click1 npc: 4398, at location: [3087,3486,0],[55,54]
2018/05/03 22:41:01 - Logged in from 127.0.0.1 and mac 0A-00-27-00-00-00.
2018/05/03 22:41:02 - Pressed 378, button: 6, button2: 0
2018/05/03 22:41:08 - Pressed 548, button: 30, button2: 0
2018/05/03 22:41:13 - Attacked npc: 2042, at location: [82,89,0],[50,49]
2018/05/03 22:41:14 - Pressed 548, button: 35, button2: 0
2018/05/03 22:41:14 - Pressed 271, button: 43, button2: 0
2018/05/03 22:41:15 - Attacked npc: 2042, at location: [82,89,0],[50,49]
2018/05/03 22:41:19 - Pressed 548, button: 33, button2: 0
2018/05/03 22:41:26 - Attacked npc: 2042, at location: [82,89,0],[50,49]
2018/05/03 22:41:37 - Pressed 548, button: 35, button2: 0
2018/05/03 22:41:37 - Pressed 271, button: 39, button2: 0
2018/05/03 22:41:39 - Pressed 271, button: 37, button2: 0
2018/05/03 22:41:41 - Pressed 548, button: 33, button2: 0
2018/05/03 22:42:28 - Pressed 548, button: 30, button2: 0
2018/05/03 22:43:51 - Logged in from 127.0.0.1 and mac 0A-00-27-00-00-00.
2018/05/03 22:43:53 - Pressed 378, button: 6, button2: 0
2018/05/03 22:43:55 - Pressed 548, button: 30, button2: 0
2018/05/03 22:43:56 - Pressed 548, button: 33, button2: 0
2018/05/03 22:44:01 - Attacked npc: 2042, at location: [82,89,0],[50,49]
2018/05/03 22:44:02 - Pressed 548, button: 30, button2: 0
2018/05/03 22:44:03 - Attacked npc: 2042, at location: [82,89,0],[50,49]
2018/05/03 22:44:05 - Pressed 548, button: 35, button2: 0
2018/05/03 22:44:06 - Pressed 271, button: 43, button2: 0
2018/05/03 22:44:07 - Used command master
2018/05/03 22:44:09 - Pressed 548, button: 33, button2: 0
2018/05/03 22:44:10 - Pressed 548, button: 30, button2: 0
2018/05/03 22:44:13 - Used command spec 1000
2018/05/03 22:44:16 - Attacked npc: 2042, at location: [82,89,0],[50,49]
2018/05/03 22:44:19 - Attacked npc: 2042, at location: [82,89,0],[50,49]
2018/05/03 22:44:21 - Attacked npc: 2042, at location: [82,89,0],[50,49]
2018/05/03 22:44:27 - Pressed 548, button: 35, button2: 0
2018/05/03 22:44:28 - Pressed 271, button: 37, button2: 0
2018/05/03 22:44:29 - Used command spec 100
2018/05/03 22:44:30 - Attacked npc: 2042, at location: [82,89,0],[50,49]
2018/05/03 22:44:30 - Pressed 271, button: 39, button2: 0
2018/05/03 22:44:31 - Pressed 548, button: 33, button2: 0
2018/05/03 22:44:35 - Pressed 548, button: 35, button2: 0
2018/05/03 22:44:35 - Pressed 271, button: 41, button2: 0
2018/05/03 22:44:36 - Pressed 548, button: 33, button2: 0
2018/05/03 22:44:55 - Attacked npc: 2042, at location: [82,89,0],[50,49]
2018/05/03 22:44:57 - Attacked npc: 2042, at location: [82,89,0],[50,49]
2018/05/03 22:45:00 - Attacked npc: 2042, at location: [82,89,0],[50,49]
2018/05/03 22:45:03 - Attacked npc: 2042, at location: [82,89,0],[50,49]
2018/05/03 22:45:08 - Used command npc 2045
2018/05/03 22:45:10 - Attacked npc: 2042, at location: [82,89,0],[50,49]
2018/05/03 22:45:10 - Attacked npc: 2042, at location: [82,89,0],[50,49]
2018/05/03 22:45:12 - Attacked npc: 2042, at location: [82,89,0],[50,49]
2018/05/03 22:45:44 - Logged in from 127.0.0.1 and mac 0A-00-27-00-00-00.
2018/05/03 22:45:44 - Pressed 378, button: 6, button2: 0
2018/05/03 22:45:50 - Used command master
2018/05/03 22:45:50 - Pressed 548, button: 35, button2: 0
2018/05/03 22:45:52 - Pressed 271, button: 43, button2: 0
2018/05/03 22:45:53 - Attacked npc: 2042, at location: [82,89,0],[50,49]
2018/05/03 22:45:54 - Pressed 271, button: 39, button2: 0
2018/05/03 22:45:55 - Attacked npc: 2042, at location: [82,89,0],[50,49]
2018/05/03 22:45:58 - Pressed 548, button: 30, button2: 0
2018/05/03 22:46:00 - Attacked npc: 2042, at location: [82,89,0],[50,49]
2018/05/03 22:46:04 - Used command spec 1000
2018/05/03 22:46:05 - Attacked npc: 2042, at location: [82,89,0],[50,49]
2018/05/03 22:46:09 - Used command spec 55
2018/05/03 22:46:11 - Attacked npc: 2042, at location: [82,89,0],[50,49]
2018/05/03 22:46:14 - Used command spec 10
2018/05/03 22:46:16 - Attacked npc: 2042, at location: [82,89,0],[50,49]
2018/05/03 22:46:18 - Used command spec
2018/05/03 22:46:21 - Pressed 548, button: 35, button2: 0
2018/05/03 22:46:21 - Pressed 271, button: 41, button2: 0
2018/05/03 22:46:22 - Attacked npc: 2042, at location: [82,89,0],[50,49]
2018/05/03 22:46:25 - Attacked npc: 2042, at location: [82,89,0],[50,49]
2018/05/03 22:46:29 - Attacked npc: 2042, at location: [82,89,0],[50,49]
2018/05/03 22:46:56 - Pressed 271, button: 37, button2: 0
2018/05/03 22:46:56 - Attacked npc: 2042, at location: [82,89,0],[50,49]
2018/05/03 22:47:01 - Attacked npc: 2042, at location: [82,89,0],[50,49]
2018/05/03 22:47:03 - Attacked npc: 2042, at location: [82,89,0],[50,49]
2018/05/03 22:47:05 - Attacked npc: 2042, at location: [82,89,0],[50,49]
2018/05/03 22:47:07 - Attacked npc: 2042, at location: [82,89,0],[50,49]
2018/05/03 22:47:31 - Pressed 271, button: 37, button2: 0
2018/05/03 22:47:31 - Pressed 271, button: 37, button2: 0
2018/05/03 22:47:32 - Attacked npc: 2042, at location: [81,78,0],[49,54]
2018/05/03 22:47:33 - Attacked npc: 2045, at location: [85,86,0],[53,54]
2018/05/03 22:47:36 - Attacked npc: 2045, at location: [85,86,0],[53,54]
2018/05/03 22:47:37 - Attacked npc: 2042, at location: [81,78,0],[49,54]
2018/05/03 22:47:43 - Attacked npc: 2042, at location: [81,78,0],[49,54]
2018/05/03 22:48:01 - Pressed 271, button: 41, button2: 0
2018/05/03 22:48:02 - Attacked npc: 2042, at location: [82,89,0],[50,49]
2018/05/04 19:50:02 - Logged in from 127.0.0.1 and mac 0A-00-27-00-00-00.
2018/05/04 19:50:03 - Pressed 378, button: 6, button2: 0
2018/05/04 19:50:07 - Pressed 548, button: 31, button2: 0
2018/05/04 19:50:07 - Pressed 548, button: 30, button2: 0
2018/05/04 19:50:17 - Used command pos
2018/05/04 19:50:22 - Used command pos
2018/05/04 19:50:48 - Used command pos
2018/05/04 19:53:59 - Logged in from 127.0.0.1 and mac 0A-00-27-00-00-00.
2018/05/04 19:54:00 - Pressed 378, button: 6, button2: 0
2018/05/04 19:54:01 - Pressed 548, button: 30, button2: 0
2018/05/04 19:54:04 - Pressed 548, button: 33, button2: 0
2018/05/04 19:54:08 - Pressed 548, button: 30, button2: 0
2018/05/04 19:54:09 - Attacked npc: 2042, at location: [82,89,0],[50,49]
2018/05/04 19:54:10 - Attacked npc: 2042, at location: [82,89,0],[50,49]
2018/05/04 19:54:13 - Attacked npc: 2042, at location: [82,89,0],[50,49]
2018/05/04 19:54:16 - Pressed 548, button: 33, button2: 0
2018/05/04 19:54:18 - Attacked npc: 2042, at location: [82,89,0],[50,49]
2018/05/04 19:58:59 - Logged in from 127.0.0.1 and mac 0A-00-27-00-00-00.
2018/05/04 19:59:00 - Pressed 378, button: 6, button2: 0
2018/05/04 19:59:01 - Pressed 548, button: 30, button2: 0
2018/05/04 19:59:09 - Attacked npc: 2042, at location: [82,89,0],[50,49]
2018/05/04 19:59:12 - Attacked npc: 2042, at location: [82,89,0],[50,49]
2018/05/04 19:59:19 - Pressed 548, button: 35, button2: 0
2018/05/04 19:59:34 - Pressed 271, button: 37, button2: 0
2018/05/04 19:59:43 - Pressed 271, button: 39, button2: 0
2018/05/04 19:59:44 - Pressed 271, button: 41, button2: 0
2018/05/04 19:59:46 - Pressed 271, button: 41, button2: 0
2018/05/04 19:59:49 - Used command master
2018/05/04 19:59:50 - Pressed 271, button: 41, button2: 0
2018/05/04 19:59:52 - Pressed 548, button: 30, button2: 0
2018/05/04 20:00:04 - Attacked npc: 2042, at location: [82,89,0],[50,49]
2018/05/04 20:00:08 - Pressed 548, button: 35, button2: 0
2018/05/04 20:00:09 - Pressed 271, button: 41, button2: 0
2018/05/04 20:00:15 - Pressed 271, button: 37, button2: 0
2018/05/04 20:00:26 - Pressed 548, button: 226, button2: 0
2018/05/04 20:00:28 - Pressed 548, button: 224, button2: 0
2018/05/04 20:00:28 - Pressed 548, button: 226, button2: 0
2018/05/04 20:00:29 - Pressed 548, button: 30, button2: 0
2018/05/04 20:00:34 - Pressed 548, button: 35, button2: 0
2018/05/04 20:00:42 - Attacked npc: 2042, at location: [81,78,0],[49,54]
2018/05/04 20:00:44 - Attacked npc: 2042, at location: [81,78,0],[49,54]
2018/05/04 20:00:47 - Attacked npc: 2042, at location: [81,78,0],[49,54]
2018/05/04 20:00:51 - Attacked npc: 2042, at location: [81,78,0],[49,54]
2018/05/04 20:01:11 - Attacked npc: 2042, at location: [82,89,0],[50,49]
2018/05/04 20:01:12 - Pressed 271, button: 41, button2: 0
2018/05/04 20:01:14 - Attacked npc: 2042, at location: [82,89,0],[50,49]
2018/05/04 20:01:20 - Pressed 548, button: 30, button2: 0
2018/05/04 20:01:24 - Pressed 548, button: 35, button2: 0
2018/05/04 20:01:26 - Pressed 271, button: 41, button2: 0
2018/05/04 20:01:29 - Pressed 271, button: 41, button2: 0
2018/05/04 20:01:29 - Attacked npc: 2042, at location: [82,89,0],[50,49]
2018/05/04 20:01:31 - Pressed 548, button: 33, button2: 0
2018/05/04 20:01:42 - Pressed 548, button: 35, button2: 0
2018/05/04 20:01:44 - Attacked npc: 2042, at location: [73,85,0],[49,53]
2018/05/04 20:01:45 - Pressed 271, button: 37, button2: 0
2018/05/04 20:01:46 - Attacked npc: 2042, at location: [73,85,0],[49,53]
2018/05/04 20:01:48 - Attacked npc: 2042, at location: [73,85,0],[49,53]
2018/05/04 20:01:52 - Pressed 548, button: 30, button2: 0
2018/05/04 20:01:53 - Pressed 548, button: 35, button2: 0
2018/05/04 20:02:01 - Attacked npc: 2042, at location: [73,85,0],[49,53]
2018/05/04 20:02:14 - Attacked npc: 2042, at location: [81,78,0],[49,54]
2018/05/04 20:02:22 - Pressed 271, button: 41, button2: 0
2018/05/04 20:02:23 - Pressed 271, button: 41, button2: 0
2018/05/04 20:02:27 - Pressed 548, button: 16, button2: 0
2018/05/04 20:02:27 - Pressed 182, button: 6, button2: 0
2018/05/04 20:02:31 - Logged in from 127.0.0.1 and mac 0A-00-27-00-00-00.
2018/05/04 20:02:32 - Pressed 378, button: 6, button2: 0
2018/05/04 20:02:39 - Used command tele 2200 3055
2018/05/04 20:02:41 - Pressed 548, button: 30, button2: 0
2018/05/04 20:02:45 - Pressed 548, button: 16, button2: 0
2018/05/04 20:02:45 - Pressed 182, button: 6, button2: 0
2018/05/04 20:03:18 - Logged in from 127.0.0.1 and mac 0A-00-27-00-00-00.
2018/05/04 20:03:19 - Pressed 378, button: 6, button2: 0
2018/05/04 20:03:21 - Pressed 548, button: 30, button2: 0
2018/05/04 20:03:27 - Attacked npc: 2042, at location: [82,89,0],[50,49]
2018/05/04 20:03:29 - Attacked npc: 2042, at location: [82,89,0],[50,49]
2018/05/04 20:03:58 - Pressed 548, button: 35, button2: 0
2018/05/04 20:03:59 - Pressed 271, button: 41, button2: 0
2018/05/04 20:04:09 - Attacked npc: 2045, at location: [88,92,0],[48,52]
2018/05/04 20:04:12 - Attacked npc: 2045, at location: [88,92,0],[48,52]
2018/05/04 20:04:13 - Attacked npc: 2045, at location: [88,91,0],[48,51]
2018/05/04 20:04:14 - Attacked npc: 2042, at location: [82,89,0],[50,49]
2018/05/04 20:04:15 - Attacked npc: 2042, at location: [82,89,0],[50,49]
2018/05/04 20:04:16 - Attacked npc: 2045, at location: [88,92,0],[48,52]
2018/05/04 20:04:21 - Attacked npc: 2045, at location: [88,92,0],[48,52]
2018/05/04 20:05:12 - Logged in from 127.0.0.1 and mac 0A-00-27-00-00-00.
2018/05/04 20:05:13 - Pressed 378, button: 6, button2: 0
2018/05/04 20:05:15 - Pressed 548, button: 30, button2: 0
2018/05/04 20:05:21 - Attacked npc: 2042, at location: [82,89,0],[50,49]
2018/05/04 20:05:23 - Attacked npc: 2042, at location: [82,89,0],[50,49]
2018/05/04 20:05:28 - Pressed 548, button: 33, button2: 0
2018/05/04 20:05:45 - Pressed 548, button: 35, button2: 0
2018/05/04 20:05:46 - Pressed 271, button: 37, button2: 0
2018/05/04 20:05:48 - Attacked npc: 2042, at location: [82,89,0],[50,49]
2018/05/04 20:05:48 - Pressed 271, button: 41, button2: 0
2018/05/04 20:05:49 - Pressed 548, button: 32, button2: 0
2018/05/04 20:05:50 - Pressed 548, button: 33, button2: 0
2018/05/04 20:05:51 - Attacked npc: 2042, at location: [82,89,0],[50,49]
2018/05/04 20:06:07 - Attacked npc: 2045, at location: [83,85,0],[51,53]
2018/05/04 20:06:12 - Attacked npc: 2045, at location: [83,85,0],[51,53]
2018/05/04 20:06:14 - Attacked npc: 2045, at location: [83,85,0],[51,53]
2018/05/04 20:06:14 - Attacked npc: 2045, at location: [83,85,0],[51,53]
2018/05/04 20:06:14 - Attacked npc: 2045, at location: [83,85,0],[51,53]
2018/05/04 20:06:14 - Attacked npc: 2045, at location: [83,85,0],[51,53]
2018/05/04 20:06:14 - Attacked npc: 2045, at location: [83,85,0],[51,53]
2018/05/04 20:06:15 - Attacked npc: 2045, at location: [83,85,0],[51,53]
2018/05/04 20:06:15 - Attacked npc: 2045, at location: [83,85,0],[51,53]
2018/05/04 20:06:16 - Attacked npc: 2042, at location: [82,89,0],[50,49]
2018/05/04 20:06:18 - Attacked npc: 2042, at location: [82,89,0],[50,49]
2018/05/04 20:06:22 - Attacked npc: 2042, at location: [82,89,0],[50,49]
2018/05/04 20:06:27 - Clicked item: 391, on inter: 149, in slot: 3.
2018/05/04 20:06:28 - Pressed 548, button: 35, button2: 0
2018/05/04 20:06:29 - Pressed 271, button: 37, button2: 0
2018/05/04 20:06:33 - Attacked npc: 2042, at location: [82,89,0],[50,49]
2018/05/04 20:06:36 - Attacked npc: 2042, at location: [82,89,0],[50,49]
2018/05/04 20:06:55 - Attacked npc: 2045, at location: [80,87,0],[48,55]
2018/05/04 20:06:57 - Attacked npc: 2045, at location: [80,87,0],[48,55]
2018/05/04 20:07:06 - Pressed 548, button: 30, button2: 0
2018/05/04 20:07:11 - Attacked npc: 2042, at location: [81,78,0],[49,54]
2018/05/04 20:08:07 - Attacked npc: 2042, at location: [82,89,0],[50,49]
2018/05/04 20:08:10 - Attacked npc: 2042, at location: [82,89,0],[50,49]
2018/05/04 20:08:12 - Pressed 548, button: 35, button2: 0
2018/05/04 20:08:18 - Pressed 271, button: 37, button2: 0
2018/05/04 20:08:19 - Attacked npc: 2042, at location: [73,85,0],[49,53]
2018/05/04 20:08:22 - Pressed 548, button: 30, button2: 0
2018/05/04 20:08:27 - Attacked npc: 2042, at location: [73,85,0],[49,53]
2018/05/04 20:08:27 - Attacked npc: 2042, at location: [73,85,0],[49,53]
2018/05/04 20:08:27 - Attacked npc: 2042, at location: [73,85,0],[49,53]
2018/05/04 20:08:31 - Attacked npc: 2042, at location: [73,85,0],[49,53]
2018/05/04 20:08:36 - Pressed 548, button: 35, button2: 0
2018/05/04 20:08:36 - Pressed 271, button: 43, button2: 0
2018/05/04 20:08:37 - Pressed 548, button: 33, button2: 0
2018/05/04 20:08:39 - Pressed 548, button: 101, button2: 0
2018/05/04 20:08:40 - Pressed 548, button: 101, button2: 0
2018/05/04 20:08:41 - Pressed 548, button: 101, button2: 0
2018/05/04 20:08:41 - Pressed 548, button: 101, button2: 0
2018/05/04 20:08:42 - Attacked npc: 2042, at location: [81,78,0],[49,54]
2018/05/04 20:08:43 - Attacked npc: 2042, at location: [81,78,0],[49,54]
2018/05/04 20:09:17 - Attacked npc: 2045, at location: [84,85,0],[52,53]
2018/05/04 20:09:18 - Attacked npc: 2045, at location: [84,85,0],[52,53]
2018/05/04 20:09:20 - Attacked npc: 2045, at location: [84,85,0],[52,53]
2018/05/04 20:09:21 - Attacked npc: 2045, at location: [84,85,0],[52,53]
2018/05/04 20:09:21 - Attacked npc: 2045, at location: [84,85,0],[52,53]
2018/05/04 20:09:21 - Attacked npc: 2045, at location: [84,85,0],[52,53]
2018/05/04 20:09:21 - Attacked npc: 2045, at location: [84,85,0],[52,53]
2018/05/04 20:09:21 - Attacked npc: 2045, at location: [84,85,0],[52,53]
2018/05/04 20:09:21 - Attacked npc: 2045, at location: [84,85,0],[52,53]
2018/05/04 20:09:22 - Attacked npc: 2045, at location: [84,85,0],[52,53]
2018/05/04 20:09:24 - Attacked npc: 2045, at location: [84,85,0],[52,53]
2018/05/04 20:09:24 - Attacked npc: 2045, at location: [84,85,0],[52,53]
2018/05/04 20:09:25 - Attacked npc: 2045, at location: [84,85,0],[52,53]
2018/05/04 20:09:25 - Attacked npc: 2045, at location: [84,85,0],[52,53]
2018/05/04 20:14:00 - Clicked item: 391, on inter: 149, in slot: 4.
2018/05/04 20:14:02 - Clicked item: 391, on inter: 149, in slot: 2.
2018/05/04 20:14:03 - Clicked item: 391, on inter: 149, in slot: 7.
2018/05/04 20:14:03 - Clicked item: 391, on inter: 149, in slot: 7.
2018/05/04 20:14:03 - Clicked item: 391, on inter: 149, in slot: 7.
2018/05/04 20:14:03 - Clicked item: 391, on inter: 149, in slot: 7.
2018/05/04 20:14:03 - Clicked item: 391, on inter: 149, in slot: 7.
2018/05/04 20:14:03 - Clicked item: 391, on inter: 149, in slot: 7.
2018/05/04 20:14:04 - Clicked item: 391, on inter: 149, in slot: 10.
2018/05/04 20:14:04 - Clicked item: 391, on inter: 149, in slot: 10.
2018/05/04 20:14:05 - Clicked item: 391, on inter: 149, in slot: 10.
2018/05/04 20:14:05 - Clicked item: 391, on inter: 149, in slot: 10.
2018/05/04 20:14:05 - Clicked item: 391, on inter: 149, in slot: 10.
2018/05/04 20:25:35 - Closed Interface: -1
2018/05/04 20:25:49 - Pressed 548, button: 16, button2: 0
2018/05/04 20:25:50 - Pressed 182, button: 6, button2: 0
2018/05/04 20:28:13 - Logged in from 127.0.0.1 and mac 0A-00-27-00-00-00.
2018/05/04 20:28:18 - Pressed 378, button: 6, button2: 0
2018/05/04 20:28:20 - Pressed 548, button: 36, button2: 0
2018/05/04 20:28:23 - Used command master
2018/05/04 20:28:28 - Used command tele 2200 3055
2018/05/04 20:29:16 - Pressed 548, button: 35, button2: 0
2018/05/04 20:29:18 - Pressed 271, button: 41, button2: 0
2018/05/04 20:29:19 - Pressed 548, button: 30, button2: 0
2018/05/04 20:29:23 - Pressed 548, button: 35, button2: 0
2018/05/04 20:29:27 - Attacked npc: 2045, at location: [88,85,0],[48,53]
2018/05/04 20:29:31 - Attacked npc: 2045, at location: [88,87,0],[48,55]
2018/05/04 20:29:35 - Attacked npc: 2045, at location: [88,87,0],[48,55]
2018/05/04 20:29:35 - Attacked npc: 2045, at location: [88,87,0],[48,55]
2018/05/04 20:29:36 - Attacked npc: 2045, at location: [88,87,0],[48,55]
2018/05/04 20:29:36 - Attacked npc: 2045, at location: [88,87,0],[48,55]
2018/05/04 20:29:38 - Attacked npc: 2045, at location: [88,87,0],[48,55]
2018/05/04 20:29:38 - Attacked npc: 2045, at location: [88,87,0],[48,55]
2018/05/04 20:31:18 - Logged in from 127.0.0.1 and mac 0A-00-27-00-00-00.
2018/05/04 20:31:19 - Pressed 378, button: 6, button2: 0
2018/05/04 20:31:22 - Used command npc 2046
2018/05/04 20:31:23 - Attacked npc: 2046, at location: [85,85,0],[53,53]
2018/05/04 20:31:27 - Used command tele 2200 3055
2018/05/04 20:31:31 - Used command npc 2046
2018/05/04 20:31:40 - Closed Interface: -1
2018/05/04 20:31:41 - Used command npc 2046
2018/05/04 20:31:42 - Attacked npc: 2046, at location: [3093,3469,0],[53,53]
2018/05/04 20:31:44 - Attacked npc: 2046, at location: [3093,3469,0],[53,53]
2018/05/04 20:31:49 - Attacked npc: 2046, at location: [3093,3469,0],[53,53]
2018/05/04 20:31:50 - Attacked npc: 2046, at location: [3093,3469,0],[53,53]
2018/05/04 20:31:50 - Attacked npc: 2046, at location: [3093,3469,0],[53,53]
2018/05/04 20:33:02 - Logged in from 127.0.0.1 and mac 0A-00-27-00-00-00.
2018/05/04 20:33:03 - Pressed 378, button: 6, button2: 0
2018/05/04 20:33:08 - Used command npc 2046
2018/05/04 20:33:10 - Pressed 548, button: 30, button2: 0
2018/05/04 20:33:16 - Closed Interface: -1
2018/05/04 20:33:18 - Used command npc 2046
2018/05/04 20:33:19 - Attacked npc: 2046, at location: [3094,3470,0],[54,54]
2018/05/04 20:33:20 - Attacked npc: 2046, at location: [3094,3470,0],[54,54]
2018/05/04 20:33:21 - Pressed 548, button: 35, button2: 0
2018/05/04 20:33:22 - Pressed 271, button: 41, button2: 0
2018/05/04 20:33:22 - Pressed 548, button: 33, button2: 0
2018/05/04 20:33:23 - Attacked npc: 2046, at location: [3094,3470,0],[54,54]
2018/05/04 20:33:25 - Attacked npc: 2046, at location: [3094,3470,0],[54,54]
2018/05/04 20:33:30 - Attacked npc: 2046, at location: [3094,3470,0],[54,54]
2018/05/04 20:33:31 - Attacked npc: 2046, at location: [3094,3470,0],[54,54]
2018/05/04 20:33:31 - Attacked npc: 2046, at location: [3094,3470,0],[54,54]
2018/05/04 20:33:31 - Attacked npc: 2046, at location: [3094,3470,0],[54,54]
2018/05/04 20:33:32 - Attacked npc: 2046, at location: [3094,3470,0],[54,54]
2018/05/04 20:33:32 - Attacked npc: 2046, at location: [3094,3470,0],[54,54]
2018/05/04 20:33:36 - Attacked npc: 2046, at location: [3094,3470,0],[54,54]
2018/05/04 20:34:44 - Logged in from 127.0.0.1 and mac 0A-00-27-00-00-00.
2018/05/04 20:34:45 - Pressed 378, button: 6, button2: 0
2018/05/04 20:34:49 - Used command master
2018/05/04 20:34:51 - Used command npc 2046
2018/05/04 20:34:54 - Pressed 548, button: 31, button2: 0
2018/05/04 20:34:54 - Pressed 548, button: 30, button2: 0
2018/05/04 20:35:40 - Logged in from 127.0.0.1 and mac 0A-00-27-00-00-00.
2018/05/04 20:35:40 - Pressed 378, button: 6, button2: 0
2018/05/04 20:35:46 - Used command npc 2046
2018/05/04 20:35:48 - Pressed 548, button: 30, button2: 0
2018/05/04 20:35:52 - Used command npc 2046
2018/05/04 20:35:54 - Closed Interface: -1
2018/05/04 20:35:57 - Used command npc 2046
2018/05/04 20:40:04 - Logged in from 127.0.0.1 and mac 0A-00-27-00-00-00.
2018/05/04 20:40:05 - Pressed 378, button: 6, button2: 0
2018/05/04 20:40:10 - Used command master
2018/05/04 20:40:17 - Used command npc 2045
2018/05/04 20:40:25 - Used command bank
2018/05/04 20:40:52 - Used command item 2551 500
2018/05/04 20:40:54 - Clicked item4 2551,1,15,0.
2018/05/04 20:40:54 - Banked 500 x Ring of recoil (2550)
2018/05/04 20:40:55 - Clicked item1 2550,0,12,7.
2018/05/04 20:40:57 - Closed Interface: 12
2018/05/04 20:40:57 - Equipped item: 2550, into slot: 1, on inter: 149
2018/05/04 20:41:13 - Used command item 11212 1000
2018/05/04 20:41:15 - Equipped item: 11212, into slot: 1, on inter: 149
2018/05/04 20:41:18 - Used command item 20997 1
2018/05/04 20:41:19 - Equipped item: 20997, into slot: 1, on inter: 149
2018/05/04 20:41:20 - Attacked npc: 2042, at location: [82,89,0],[50,49]
2018/05/04 20:41:22 - Pressed 548, button: 30, button2: 0
2018/05/04 20:41:23 - Attacked npc: 2042, at location: [82,89,0],[50,49]
2018/05/04 20:41:34 - Pressed 548, button: 33, button2: 0
2018/05/04 20:41:38 - Used command item 11785 1
2018/05/04 20:41:50 - Used command item 11802 1
2018/05/04 20:41:54 - Pressed 548, button: 35, button2: 0
2018/05/04 20:41:55 - Pressed 271, button: 41, button2: 0
2018/05/04 20:41:55 - Pressed 548, button: 33, button2: 0
2018/05/04 20:42:07 - Used command item 11828 1
2018/05/04 20:42:13 - Used command item 11830 1
2018/05/04 20:42:14 - Equipped item: 11828, into slot: 3, on inter: 149
2018/05/04 20:42:15 - Equipped item: 11830, into slot: 4, on inter: 149
2018/05/04 20:42:19 - Attacked npc: 2042, at location: [82,89,0],[50,49]
2018/05/04 20:42:22 - Attacked npc: 2042, at location: [82,89,0],[50,49]
2018/05/04 20:42:23 - Attacked npc: 2042, at location: [82,89,0],[50,49]
2018/05/04 20:42:25 - Attacked npc: 2042, at location: [82,89,0],[50,49]
2018/05/04 20:42:28 - Attacked npc: 2042, at location: [82,89,0],[50,49]
2018/05/04 20:42:35 - Pressed 548, button: 35, button2: 0
2018/05/04 20:42:39 - Pressed 548, button: 30, button2: 0
2018/05/04 20:42:40 - Attacked npc: 2042, at location: [81,78,0],[49,54]
2018/05/04 20:42:40 - Attacked npc: 2042, at location: [81,78,0],[49,54]
2018/05/04 20:42:42 - Pressed 548, button: 33, button2: 0
2018/05/04 20:43:11 - Pressed 548, button: 35, button2: 0
2018/05/04 20:43:13 - Attacked npc: 2042, at location: [82,89,0],[50,49]
2018/05/04 20:43:36 - Pressed 548, button: 33, button2: 0
2018/05/04 20:43:43 - Pressed 548, button: 35, button2: 0
2018/05/04 20:43:44 - Pressed 271, button: 39, button2: 0
2018/05/04 20:43:44 - Pressed 271, button: 37, button2: 0
2018/05/04 20:43:46 - Pressed 548, button: 33, button2: 0
2018/05/04 20:43:56 - Used command item 11826 1
2018/05/04 20:43:57 - Equipped item: 11826, into slot: 3, on inter: 149
2018/05/04 20:43:59 - Attacked npc: 2042, at location: [73,85,0],[49,53]
2018/05/04 20:44:10 - Used command item 13237 1
2018/05/04 20:44:12 - Equipped item: 13237, into slot: 3, on inter: 149
2018/05/04 20:44:18 - Attacked npc: 2042, at location: [81,78,0],[49,54]
2018/05/04 20:44:25 - Pressed 548, button: 35, button2: 0
2018/05/04 20:44:31 - Pressed 548, button: 33, button2: 0
2018/05/04 20:44:39 - Pressed 548, button: 35, button2: 0
2018/05/04 20:44:40 - Pressed 271, button: 39, button2: 0
2018/05/04 20:44:44 - Pressed 548, button: 36, button2: 0
2018/05/04 20:44:44 - Pressed 665, button: 0, button2: 0
2018/05/04 20:44:45 - Pressed 548, button: 33, button2: 0
2018/05/04 20:44:50 - Pressed 548, button: 35, button2: 0
2018/05/04 20:44:52 - Pressed 271, button: 39, button2: 0
2018/05/04 20:44:53 - Pressed 271, button: 37, button2: 0
2018/05/04 20:45:00 - Pressed 548, button: 34, button2: 0
2018/05/04 20:45:07 - Used command item ::item 7463 1
2018/05/04 20:45:08 - Pressed 548, button: 33, button2: 0
2018/05/04 20:45:11 - Used command item 7463 10
2018/05/04 20:45:15 - Used command item 7462 1
2018/05/04 20:45:16 - Equipped item: 7462, into slot: 13, on inter: 149
2018/05/04 20:45:19 - Used command bank
2018/05/04 20:45:20 - Clicked item1 11802,2,15,0.
2018/05/04 20:45:20 - Banked 1 x Armadyl godsword (11802)
2018/05/04 20:45:21 - Clicked item1 11785,1,15,0.
2018/05/04 20:45:21 - Banked 1 x Armadyl crossbow (11785)
2018/05/04 20:45:22 - swapped from 1 to 6970 inter 12
2018/05/04 20:45:23 - swapped from 1 to 6971 inter 12
2018/05/04 20:45:24 - Closed Interface: 12
2018/05/04 20:45:27 - Pressed 548, button: 35, button2: 0
2018/05/04 20:45:28 - Pressed 271, button: 37, button2: 0
2018/05/04 20:45:28 - Pressed 548, button: 33, button2: 0
2018/05/04 20:45:30 - Said :;empty.
2018/05/04 20:45:33 - Said :empty.
2018/05/04 20:46:01 - Used command item 13442 1000
2018/05/04 20:46:09 - Clicked item4 13442,1,15,0.
2018/05/04 20:46:09 - Banked 1000 x Anglerfish (13441)
2018/05/04 20:46:12 - swapped from 1 to 6972 inter 12
2018/05/04 20:46:14 - Clicked item1 13441,2,12,36.
2018/05/04 20:46:17 - Pressed 12, button: 37, button2: 0
2018/05/04 20:46:18 - Clicked item4 995,0,15,0.
2018/05/04 20:46:18 - Banked 3 x Coins (995)
2018/05/04 20:46:19 - swapped from 1 to 0 inter 12
2018/05/04 20:46:21 - Clicked item4 7463,4,15,0.
2018/05/04 20:46:21 - Banked 1 x Cornflour (7463)
2018/05/04 20:46:21 - Banked 1 x Cornflour (7463)
2018/05/04 20:46:21 - Banked 1 x Cornflour (7463)
2018/05/04 20:46:21 - Banked 1 x Cornflour (7463)
2018/05/04 20:46:21 - Banked 1 x Cornflour (7463)
2018/05/04 20:46:21 - Banked 1 x Cornflour (7463)
2018/05/04 20:46:21 - Banked 1 x Cornflour (7463)
2018/05/04 20:46:21 - Banked 1 x Cornflour (7463)
2018/05/04 20:46:21 - Banked 1 x Cornflour (7463)
2018/05/04 20:46:21 - Banked 1 x Cornflour (7463)
2018/05/04 20:46:24 - Clicked item1 13441,2,12,36.
2018/05/04 20:46:25 - Clicked item3 13441,0,12,7.
2018/05/04 20:46:25 - [Bank] Withdrew 1 x Anglerfish (13441)
2018/05/04 20:46:25 - [Bank] Withdrew 1 x Anglerfish (13441)
2018/05/04 20:46:25 - [Bank] Withdrew 1 x Anglerfish (13441)
2018/05/04 20:46:25 - [Bank] Withdrew 1 x Anglerfish (13441)
2018/05/04 20:46:25 - [Bank] Withdrew 1 x Anglerfish (13441)
2018/05/04 20:46:25 - [Bank] Withdrew 1 x Anglerfish (13441)
2018/05/04 20:46:25 - [Bank] Withdrew 1 x Anglerfish (13441)
2018/05/04 20:46:25 - [Bank] Withdrew 1 x Anglerfish (13441)
2018/05/04 20:46:25 - [Bank] Withdrew 1 x Anglerfish (13441)
2018/05/04 20:46:25 - [Bank] Withdrew 1 x Anglerfish (13441)
2018/05/04 20:46:26 - Closed Interface: 12
2018/05/04 20:46:54 - Used command item 22109 1
2018/05/04 20:46:55 - Equipped item: 22109, into slot: 10, on inter: 149
2018/05/04 20:46:57 - Equipped item: 22109, into slot: 10, on inter: 149
2018/05/04 20:46:57 - Equipped item: 22109, into slot: 10, on inter: 149
2018/05/04 20:46:58 - Equipped item: 22109, into slot: 10, on inter: 149
2018/05/04 20:47:05 - Pressed 548, button: 16, button2: 0
2018/05/04 20:47:05 - Pressed 182, button: 6, button2: 0
2018/05/04 20:48:20 - Logged in from 127.0.0.1 and mac 0A-00-27-00-00-00.
2018/05/04 20:48:21 - Pressed 378, button: 6, button2: 0
2018/05/04 20:48:26 - Used command gfx 1045
2018/05/04 20:48:39 - Used command gfx 1047
2018/05/04 20:49:07 - Equipped item: 22109, into slot: 10, on inter: 149
2018/05/04 20:49:10 - Closed Interface: 12
2018/05/04 20:49:14 - Pressed 548, button: 34, button2: 0
2018/05/04 20:49:26 - Pressed 548, button: 33, button2: 0
2018/05/04 20:49:31 - Used command item 20366 1
2018/05/04 20:49:36 - Used command item 20368 1
2018/05/04 20:49:40 - Used command item 20370 1
2018/05/04 20:49:45 - Used command item 20372 1
2018/05/04 20:49:49 - Used command item 20374 1
2018/05/04 20:49:51 - Equipped item: 20372, into slot: 13, on inter: 149
2018/05/04 20:49:54 - Equipped item: 20370, into slot: 12, on inter: 149
2018/05/04 20:50:02 - Equipped item: 20368, into slot: 11, on inter: 149
2018/05/04 20:50:07 - Equipped item: 20372, into slot: 12, on inter: 149
2018/05/04 20:50:10 - Equipped item: 20374, into slot: 14, on inter: 149
2018/05/04 20:50:14 - Equipped item: 20997, into slot: 13, on inter: 149
2018/05/04 20:50:15 - Equipped item: 20366, into slot: 10, on inter: 149
2018/05/04 20:50:17 - Pressed 548, button: 34, button2: 0
2018/05/04 20:50:21 - Pressed 548, button: 33, button2: 0
2018/05/04 20:50:22 - Clicked item1 11802,0,12,36.
2018/05/04 20:50:23 - Clicked item1 20368,12,15,0.
2018/05/04 20:50:23 - Banked 1 x Armadyl godsword (or) (20368)
2018/05/04 20:50:24 - Clicked item1 20374,13,15,0.
2018/05/04 20:50:24 - Banked 1 x Zamorak godsword (or) (20374)
2018/05/04 20:50:24 - Clicked item1 20372,14,15,0.
2018/05/04 20:50:24 - Banked 1 x Saradomin godsword (or) (20372)
2018/05/04 20:50:24 - Clicked item1 20370,11,15,0.
2018/05/04 20:50:24 - Banked 1 x Bandos godsword (or) (20370)
2018/05/04 20:50:25 - Pressed 12, button: 37, button2: 0
2018/05/04 20:50:27 - Pressed 548, button: 30, button2: 0
2018/05/04 20:50:32 - Pressed 548, button: 16, button2: 0
2018/05/04 20:50:33 - Pressed 182, button: 6, button2: 0
2018/05/04 20:50:35 - Logged in from 127.0.0.1 and mac 0A-00-27-00-00-00.
2018/05/04 20:50:36 - Pressed 378, button: 6, button2: 0
2018/05/04 20:50:36 - Click1 npc: 4398, at location: [3089,3488,0],[49,48]
2018/05/04 20:50:49 - Used command item 995 100000
2018/05/04 20:50:52 - swapped from 10 to 27 inter 149
2018/05/04 20:50:53 - Pressed 548, button: 16, button2: 0
2018/05/04 20:50:53 - Pressed 182, button: 6, button2: 0
2018/05/04 20:55:28 - Logged in from 127.0.0.1 and mac 0A-00-27-00-00-00.
2018/05/04 20:55:28 - Pressed 378, button: 6, button2: 0
2018/05/04 20:55:31 - Click1 npc: 4398, at location: [3088,3487,0],[48,55]
2018/05/04 20:55:32 - Click1 npc: 4398, at location: [3089,3487,0],[49,55]
2018/05/04 20:55:36 - Pressed 548, button: 30, button2: 0
2018/05/04 20:55:47 - Attacked npc: 2042, at location: [82,89,0],[50,49]
2018/05/04 20:55:50 - Attacked npc: 2042, at location: [82,89,0],[50,49]
2018/05/04 20:55:52 - Attacked npc: 2042, at location: [82,89,0],[50,49]
2018/05/04 20:56:09 - Pressed 548, button: 35, button2: 0
2018/05/04 20:56:09 - Pressed 271, button: 43, button2: 0
2018/05/04 20:56:10 - Pressed 548, button: 33, button2: 0
2018/05/04 20:56:26 - Used command item 2444 2
2018/05/04 20:56:27 - Pressed 548, button: 35, button2: 0
2018/05/04 20:56:28 - Pressed 271, button: 41, button2: 0
2018/05/04 20:56:28 - Pressed 548, button: 33, button2: 0
2018/05/04 20:56:29 - Clicked item: 2444, on inter: 149, in slot: 11.
2018/05/04 20:56:30 - Attacked npc: 2042, at location: [82,89,0],[50,49]
2018/05/04 20:56:36 - Used command maxhit
2018/05/04 20:56:39 - Attacked npc: 2042, at location: [82,89,0],[50,49]
2018/05/04 20:56:43 - Pressed 548, button: 30, button2: 0
2018/05/04 20:56:48 - Pressed 548, button: 34, button2: 0
2018/05/04 20:56:48 - Pressed 387, button: 51, button2: 0
2018/05/04 20:56:50 - Pressed 387, button: 51, button2: 0
2018/05/04 20:56:56 - Pressed 548, button: 33, button2: 0
2018/05/04 20:57:02 - Used command item 861
2018/05/04 20:57:04 - Equipped item: 861, into slot: 12, on inter: 149
2018/05/04 20:57:06 - Used command maxhit
2018/05/04 20:57:07 - Equipped item: 20997, into slot: 12, on inter: 149
2018/05/04 20:57:08 - Attacked npc: 2042, at location: [82,89,0],[50,49]
2018/05/04 20:57:11 - Clicked item: 2444, on inter: 149, in slot: 10.
2018/05/04 20:57:12 - Attacked npc: 2042, at location: [82,89,0],[50,49]
2018/05/04 20:57:18 - Attacked npc: 2042, at location: [82,89,0],[50,49]
2018/05/04 20:57:22 - Attacked npc: 2042, at location: [82,89,0],[50,49]
2018/05/04 20:57:24 - Attacked npc: 2042, at location: [82,89,0],[50,49]
2018/05/04 20:57:29 - Pressed 548, button: 30, button2: 0
2018/05/04 20:57:31 - Pressed 548, button: 35, button2: 0
2018/05/04 20:57:43 - Pressed 548, button: 31, button2: 0
2018/05/04 20:57:45 - Pressed 548, button: 33, button2: 0
2018/05/04 20:57:49 - Equipped item: 861, into slot: 12, on inter: 149
2018/05/04 20:57:50 - Attacked npc: 2042, at location: [81,78,0],[49,54]
2018/05/04 20:57:52 - Equipped item: 20997, into slot: 12, on inter: 149
2018/05/04 20:57:53 - Attacked npc: 2042, at location: [81,78,0],[49,54]
2018/05/04 20:57:54 - Attacked npc: 2045, at location: [82,84,0],[50,52]
2018/05/04 20:57:55 - Attacked npc: 2042, at location: [81,78,0],[49,54]
2018/05/04 20:57:55 - Attacked npc: 2042, at location: [81,78,0],[49,54]
2018/05/04 20:58:00 - Pressed 548, button: 35, button2: 0
2018/05/04 20:58:01 - Pressed 271, button: 37, button2: 0
2018/05/04 20:58:02 - Pressed 548, button: 33, button2: 0
2018/05/04 20:58:06 - Pressed 548, button: 35, button2: 0
2018/05/04 20:58:06 - Pressed 271, button: 41, button2: 0
2018/05/04 20:58:08 - Attacked npc: 2042, at location: [82,89,0],[50,49]
2018/05/04 20:58:12 - Pressed 548, button: 33, button2: 0
2018/05/04 20:58:15 - Pressed 548, button: 34, button2: 0
2018/05/04 20:58:17 - Attacked npc: 2042, at location: [82,89,0],[50,49]
2018/05/04 20:58:31 - Pressed 548, button: 33, button2: 0
2018/05/04 20:58:39 - Attacked npc: 2042, at location: [73,85,0],[49,53]
2018/05/04 20:58:39 - Attacked npc: 2042, at location: [73,85,0],[49,53]
2018/05/04 21:01:42 - Logged in from 127.0.0.1 and mac 0A-00-27-00-00-00.
2018/05/04 21:01:43 - Pressed 378, button: 6, button2: 0
2018/05/04 21:01:47 - Click1 npc: 4398, at location: [3090,3489,0],[50,49]
2018/05/04 21:01:55 - Pressed 548, button: 30, button2: 0
2018/05/04 21:02:04 - Attacked npc: 2042, at location: [82,89,0],[50,49]
2018/05/04 21:02:04 - Pressed 548, button: 35, button2: 0
2018/05/04 21:02:08 - Pressed 271, button: 43, button2: 0
2018/05/04 21:02:10 - Pressed 548, button: 34, button2: 0
2018/05/04 21:02:11 - Pressed 387, button: 51, button2: 0
2018/05/04 21:02:12 - Pressed 387, button: 51, button2: 0
2018/05/04 21:02:12 - Pressed 387, button: 51, button2: 0
2018/05/04 21:02:15 - Pressed 548, button: 33, button2: 0
2018/05/04 21:02:22 - Attacked npc: 2042, at location: [82,89,0],[50,49]
2018/05/04 21:02:25 - Attacked npc: 2042, at location: [82,89,0],[50,49]
2018/05/04 21:02:27 - Attacked npc: 2042, at location: [82,89,0],[50,49]
2018/05/04 21:02:30 - Attacked npc: 2042, at location: [82,89,0],[50,49]
2018/05/04 21:02:31 - Clicked item: 13441, on inter: 149, in slot: 0.
2018/05/04 21:02:33 - Attacked npc: 2042, at location: [82,89,0],[50,49]
2018/05/04 21:02:35 - Clicked item: 13441, on inter: 149, in slot: 4.
2018/05/04 21:02:35 - Attacked npc: 2042, at location: [82,89,0],[50,49]
2018/05/04 21:02:48 - Clicked item: 13441, on inter: 149, in slot: 1.
2018/05/04 21:02:50 - Pressed 548, button: 35, button2: 0
2018/05/04 21:02:51 - Pressed 548, button: 30, button2: 0
2018/05/04 21:02:52 - Attacked npc: 2042, at location: [82,89,0],[50,49]
2018/05/04 21:02:55 - Pressed 548, button: 33, button2: 0
2018/05/04 21:02:55 - Attacked npc: 2042, at location: [82,89,0],[50,49]
2018/05/04 21:02:56 - Pressed 548, button: 35, button2: 0
2018/05/04 21:03:05 - Pressed 271, button: 37, button2: 0
2018/05/04 21:03:22 - Pressed 548, button: 34, button2: 0
2018/05/04 21:04:22 - Pressed 548, button: 35, button2: 0
2018/05/04 21:04:49 - Pressed 271, button: 37, button2: 0
2018/05/04 21:04:52 - Attacked npc: 2042, at location: [73,85,0],[49,53]
2018/05/04 21:04:54 - Attacked npc: 2042, at location: [73,85,0],[49,53]
2018/05/04 21:04:59 - Attacked npc: 2045, at location: [79,89,0],[55,49]
2018/05/04 21:05:00 - Attacked npc: 2045, at location: [79,89,0],[55,49]
2018/05/04 21:05:01 - Attacked npc: 2045, at location: [79,89,0],[55,49]
2018/05/04 21:05:02 - Attacked npc: 2042, at location: [73,85,0],[49,53]
2018/05/04 21:05:02 - Attacked npc: 2045, at location: [79,89,0],[55,49]
2018/05/04 21:05:03 - Attacked npc: 2045, at location: [79,89,0],[55,49]
2018/05/04 21:05:03 - Attacked npc: 2045, at location: [79,89,0],[55,49]
2018/05/04 21:05:05 - Attacked npc: 2042, at location: [73,85,0],[49,53]
2018/05/04 21:06:56 - Logged in from 127.0.0.1 and mac 0A-00-27-00-00-00.
2018/05/04 21:06:58 - Pressed 378, button: 6, button2: 0
2018/05/04 21:07:00 - Click1 npc: 4398, at location: [3088,3487,0],[48,55]
2018/05/04 21:07:20 - Attacked npc: 2042, at location: [82,89,0],[50,49]
2018/05/04 21:07:23 - Pressed 548, button: 30, button2: 0
2018/05/04 21:07:25 - Attacked npc: 2042, at location: [82,89,0],[50,49]
2018/05/04 21:07:40 - Attacked npc: 2042, at location: [82,89,0],[50,49]
2018/05/04 21:07:45 - Pressed 548, button: 35, button2: 0
2018/05/04 21:07:45 - Pressed 271, button: 37, button2: 0
2018/05/04 21:07:47 - Pressed 271, button: 41, button2: 0
2018/05/04 21:07:48 - Pressed 548, button: 33, button2: 0
2018/05/04 21:08:24 - Pressed 548, button: 35, button2: 0
2018/05/04 21:08:25 - Pressed 271, button: 37, button2: 0
2018/05/04 21:08:25 - Pressed 548, button: 33, button2: 0
2018/05/04 21:08:34 - Clicked item: 13441, on inter: 149, in slot: 0.
2018/05/04 21:08:37 - Attacked npc: 2042, at location: [82,89,0],[50,49]
2018/05/04 21:08:43 - Clicked item: 13441, on inter: 149, in slot: 1.
2018/05/04 21:08:43 - Attacked npc: 2042, at location: [82,89,0],[50,49]
2018/05/04 21:08:46 - Attacked npc: 2042, at location: [82,89,0],[50,49]
2018/05/04 21:08:57 - Pressed 548, button: 35, button2: 0
2018/05/04 21:09:00 - Pressed 271, button: 37, button2: 0
2018/05/04 21:09:18 - Attacked npc: 2042, at location: [81,78,0],[49,54]
2018/05/04 21:09:19 - Pressed 271, button: 39, button2: 0
2018/05/04 21:09:33 - Pressed 271, button: 41, button2: 0
2018/05/04 21:09:33 - Attacked npc: 2042, at location: [82,89,0],[50,49]
2018/05/04 21:09:41 - Attacked npc: 2042, at location: [82,89,0],[50,49]
2018/05/04 21:09:46 - Attacked npc: 2042, at location: [82,89,0],[50,49]
2018/05/04 21:09:48 - Attacked npc: 2042, at location: [82,89,0],[50,49]
2018/05/04 21:10:08 - Attacked npc: 2042, at location: [73,85,0],[49,53]
2018/05/04 21:10:13 - Attacked npc: 2042, at location: [73,85,0],[49,53]
2018/05/04 21:10:15 - Attacked npc: 2042, at location: [73,85,0],[49,53]
2018/05/04 21:10:20 - Pressed 548, button: 30, button2: 0
2018/05/04 21:10:22 - Attacked npc: 2042, at location: [73,85,0],[49,53]
2018/05/04 21:10:26 - Attacked npc: 2042, at location: [73,85,0],[49,53]
2018/05/04 21:12:48 - Logged in from 127.0.0.1 and mac 0A-00-27-00-00-00.
2018/05/04 21:12:49 - Pressed 378, button: 6, button2: 0
2018/05/04 21:12:54 - Click1 npc: 4398, at location: [3087,3488,0],[55,48]
2018/05/04 21:13:07 - Pressed 548, button: 30, button2: 0
2018/05/04 21:13:11 - Attacked npc: 2042, at location: [82,89,0],[50,49]
2018/05/04 21:13:26 - Attacked npc: 2042, at location: [82,89,0],[50,49]
2018/05/04 21:13:28 - Attacked npc: 2042, at location: [82,89,0],[50,49]
2018/05/04 21:13:30 - Pressed 548, button: 35, button2: 0
2018/05/04 21:13:31 - Pressed 271, button: 43, button2: 0
2018/05/04 21:13:32 - Pressed 548, button: 33, button2: 0
2018/05/04 21:13:33 - Attacked npc: 2042, at location: [82,89,0],[50,49]
2018/05/04 21:13:36 - Used command item 152 1
2018/05/04 21:13:39 - Dropped 1 x Fishing potion(3) from slot: 10 at [88,93,0],[48,53]
2018/05/04 21:13:42 - Used command item 151
2018/05/04 21:13:44 - Dropped 1 x Fishing potion(3) from slot: 10 at [88,93,0],[48,53]
2018/05/04 21:13:47 - Used command item 162
2018/05/04 21:13:53 - Pressed 548, button: 35, button2: 0
2018/05/04 21:13:53 - Pressed 271, button: 41, button2: 0
2018/05/04 21:13:54 - Pressed 548, button: 33, button2: 0
2018/05/04 21:13:55 - Dropped 1 x Super strength(1) from slot: 10 at [88,93,0],[48,53]
2018/05/04 21:14:06 - Used command item 2444
2018/05/04 21:14:08 - Clicked item: 2444, on inter: 149, in slot: 10.
2018/05/04 21:14:09 - Clicked item: 13441, on inter: 149, in slot: 2.
2018/05/04 21:14:10 - Clicked item: 13441, on inter: 149, in slot: 3.
2018/05/04 21:14:11 - Attacked npc: 2042, at location: [82,89,0],[50,49]
2018/05/04 21:15:01 - Pressed 548, button: 30, button2: 0
2018/05/04 21:15:04 - Attacked npc: 2042, at location: [81,78,0],[49,54]
2018/05/04 21:15:07 - Pressed 548, button: 35, button2: 0
2018/05/04 21:15:07 - Pressed 271, button: 37, button2: 0
2018/05/04 21:15:08 - Pressed 548, button: 33, button2: 0
2018/05/04 21:15:42 - Pressed 548, button: 35, button2: 0
2018/05/04 21:15:43 - Pressed 271, button: 41, button2: 0
2018/05/04 21:15:44 - Attacked npc: 2042, at location: [82,89,0],[50,49]
2018/05/04 21:21:13 - Logged in from 127.0.0.1 and mac 0A-00-27-00-00-00.
2018/05/04 21:21:14 - Pressed 378, button: 6, button2: 0
2018/05/04 21:21:16 - Click1 npc: 4398, at location: [3087,3486,0],[55,54]
2018/05/04 21:21:16 - Click1 npc: 4398, at location: [3087,3486,0],[55,54]
2018/05/04 21:21:29 - Pressed 548, button: 35, button2: 0
2018/05/04 21:21:30 - Pressed 271, button: 41, button2: 0
2018/05/04 21:21:32 - Pressed 271, button: 43, button2: 0
2018/05/04 21:21:33 - Pressed 548, button: 33, button2: 0
2018/05/04 21:21:36 - Used command item 2444
2018/05/04 21:21:37 - Clicked item: 2444, on inter: 149, in slot: 10.
2018/05/04 21:21:41 - Pressed 548, button: 30, button2: 0
2018/05/04 21:21:46 - Attacked npc: 2042, at location: [82,89,0],[50,49]
2018/05/04 21:23:02 - Pressed 548, button: 33, button2: 0
2018/05/04 21:23:04 - Clicked item: 13441, on inter: 149, in slot: 2.
2018/05/04 21:23:05 - Clicked item: 13441, on inter: 149, in slot: 6.
2018/05/04 21:23:07 - Attacked npc: 2042, at location: [82,89,0],[50,49]
2018/05/04 21:23:09 - Attacked npc: 2042, at location: [82,89,0],[50,49]
2018/05/04 21:23:12 - Attacked npc: 2042, at location: [82,89,0],[50,49]
2018/05/04 21:29:15 - Logged in from 127.0.0.1 and mac 0A-00-27-00-00-00.
2018/05/04 21:29:16 - Pressed 378, button: 6, button2: 0
2018/05/04 21:29:18 - Click1 npc: 4398, at location: [3088,3488,0],[48,48]
2018/05/04 21:29:43 - Pressed 548, button: 36, button2: 0
2018/05/04 21:29:44 - Pressed 548, button: 30, button2: 0
2018/05/04 21:29:45 - Pressed 548, button: 35, button2: 0
2018/05/04 21:29:46 - Pressed 271, button: 39, button2: 0
2018/05/04 21:29:46 - Attacked npc: 2042, at location: [82,89,0],[50,49]
2018/05/04 21:29:49 - Pressed 271, button: 43, button2: 0
2018/05/04 21:29:50 - Pressed 548, button: 33, button2: 0
2018/05/04 21:29:54 - Used command item 2444 1
2018/05/04 21:29:55 - Clicked item: 2444, on inter: 149, in slot: 10.
2018/05/04 21:29:57 - Attacked npc: 2042, at location: [82,89,0],[50,49]
2018/05/04 21:30:10 - Clicked item: 13441, on inter: 149, in slot: 0.
2018/05/04 21:30:10 - Attacked npc: 2042, at location: [82,89,0],[50,49]
2018/05/04 21:30:19 - Pressed 548, button: 35, button2: 0
2018/05/04 21:30:19 - Pressed 271, button: 41, button2: 0
2018/05/04 21:30:20 - Pressed 548, button: 33, button2: 0
2018/05/04 21:30:21 - Attacked npc: 2042, at location: [82,89,0],[50,49]
2018/05/04 21:31:07 - Attacked npc: 2042, at location: [82,89,0],[50,49]
2018/05/04 21:31:07 - Pressed 548, button: 35, button2: 0
2018/05/04 21:31:09 - Pressed 271, button: 43, button2: 0
2018/05/04 21:31:09 - Pressed 271, button: 37, button2: 0
2018/05/04 21:31:11 - Pressed 548, button: 33, button2: 0
2018/05/04 21:31:11 - Attacked npc: 2042, at location: [82,89,0],[50,49]
2018/05/04 21:31:12 - Clicked item: 13441, on inter: 149, in slot: 5.
2018/05/04 21:31:13 - Clicked item: 169, on inter: 149, in slot: 10.
2018/05/04 21:31:14 - Attacked npc: 2042, at location: [82,89,0],[50,49]
2018/05/04 21:31:16 - Pressed 548, button: 35, button2: 0
2018/05/04 21:31:21 - Attacked npc: 2042, at location: [81,78,0],[49,54]
2018/05/04 21:31:21 - Attacked npc: 2042, at location: [81,78,0],[49,54]
2018/05/04 21:31:23 - Pressed 548, button: 30, button2: 0
2018/05/04 21:31:23 - Attacked npc: 2042, at location: [81,78,0],[49,54]
2018/05/04 21:31:25 - Attacked npc: 2042, at location: [81,78,0],[49,54]
2018/05/04 21:31:33 - Attacked npc: 2042, at location: [81,78,0],[49,54]
2018/05/04 21:31:34 - Attacked npc: 2042, at location: [81,78,0],[49,54]
2018/05/04 21:31:35 - Attacked npc: 2045, at location: [79,86,0],[55,54]
2018/05/04 21:31:36 - Attacked npc: 2042, at location: [81,78,0],[49,54]
2018/05/04 21:31:37 - Attacked npc: 2042, at location: [81,78,0],[49,54]
2018/05/04 21:33:11 - Pressed 548, button: 168, button2: 0
2018/05/04 21:33:12 - Pressed 548, button: 33, button2: 0
2018/05/04 21:33:13 - Pressed 548, button: 34, button2: 0
2018/05/04 21:33:13 - Pressed 548, button: 36, button2: 0
2018/05/04 21:33:14 - Pressed 665, button: 0, button2: 0
2018/05/04 21:34:44 - swapped from 9 to 0 inter 15
2018/05/04 21:34:46 - swapped from 8 to 5 inter 15
2018/05/04 21:34:47 - swapped from 10 to 26 inter 15
2018/05/04 21:34:51 - Clicked item1 13441,2,12,36.
2018/05/04 21:34:52 - Clicked item1 11785,1,12,36.
2018/05/04 21:34:52 - Clicked item1 11802,0,12,36.
2018/05/04 21:34:53 - Pressed 12, button: 37, button2: 0
2018/05/04 21:35:02 - Clicked item1 11785,1,12,36.
2018/05/04 21:35:03 - Clicked item1 11802,0,12,36.
2018/05/04 21:35:04 - Pressed 12, button: 37, button2: 0
2018/05/04 21:35:12 - Closed Interface: 12
2018/05/04 21:36:52 - Logged in from 127.0.0.1 and mac 0A-00-27-00-00-00.
2018/05/04 21:36:54 - Pressed 378, button: 6, button2: 0
2018/05/04 21:36:56 - Click1 npc: 4398, at location: [3090,3487,0],[50,55]
2018/05/04 21:36:57 - Click1 npc: 4398, at location: [3090,3487,0],[50,55]
2018/05/04 21:37:04 - Pressed 548, button: 34, button2: 0
2018/05/04 21:37:04 - Pressed 548, button: 33, button2: 0
2018/05/04 21:37:52 - Pressed 548, button: 30, button2: 0
2018/05/04 21:37:59 - Pressed 548, button: 35, button2: 0
2018/05/04 21:38:03 - Attacked npc: 2042, at location: [82,89,0],[50,49]
2018/05/04 21:38:10 - Pressed 271, button: 41, button2: 0
2018/05/04 21:38:32 - Pressed 271, button: 41, button2: 0
2018/05/04 21:38:33 - Pressed 271, button: 41, button2: 0
2018/05/04 21:38:35 - Pressed 548, button: 33, button2: 0
2018/05/04 21:38:36 - Attacked npc: 2042, at location: [82,89,0],[50,49]
2018/05/04 21:39:10 - Clicked item: 13441, on inter: 149, in slot: 1.
2018/05/04 21:39:11 - Pressed 548, button: 35, button2: 0
2018/05/04 21:39:12 - Pressed 271, button: 41, button2: 0
2018/05/04 21:39:13 - Pressed 548, button: 33, button2: 0
2018/05/04 21:39:14 - Pressed 548, button: 35, button2: 0
2018/05/04 21:39:15 - Pressed 271, button: 37, button2: 0
2018/05/04 21:39:17 - Pressed 548, button: 33, button2: 0
2018/05/04 21:39:18 - Clicked item: 13441, on inter: 149, in slot: 2.
2018/05/04 21:39:21 - Clicked item: 13441, on inter: 149, in slot: 3.
2018/05/04 21:39:23 - Attacked npc: 2042, at location: [82,89,0],[50,49]
2018/05/04 21:39:26 - Attacked npc: 2042, at location: [82,89,0],[50,49]
2018/05/04 21:39:29 - Attacked npc: 2042, at location: [82,89,0],[50,49]
2018/05/04 21:39:32 - Attacked npc: 2042, at location: [82,89,0],[50,49]
2018/05/04 21:39:38 - Attacked npc: 2042, at location: [81,78,0],[49,54]
2018/05/04 21:39:45 - Pressed 548, button: 35, button2: 0
2018/05/04 21:39:46 - Pressed 548, button: 33, button2: 0
2018/05/04 21:39:47 - Pressed 548, button: 34, button2: 0
2018/05/04 21:39:47 - Pressed 548, button: 33, button2: 0
2018/05/04 21:39:53 - Pressed 548, button: 35, button2: 0
2018/05/04 21:39:53 - Pressed 271, button: 43, button2: 0
2018/05/04 21:39:54 - Pressed 548, button: 33, button2: 0
2018/05/04 21:39:59 - Clicked item: 13441, on inter: 149, in slot: 0.
2018/05/04 21:40:00 - Attacked npc: 2042, at location: [81,78,0],[49,54]
2018/05/04 21:40:03 - Pressed 548, button: 226, button2: 0
2018/05/04 21:40:04 - Attacked npc: 2042, at location: [81,78,0],[49,54]
2018/05/04 21:40:06 - Pressed 548, button: 226, button2: 0
2018/05/04 21:40:07 - Attacked npc: 2042, at location: [81,78,0],[49,54]
2018/05/04 21:40:09 - Pressed 548, button: 35, button2: 0
2018/05/04 21:40:10 - Pressed 271, button: 41, button2: 0
2018/05/04 21:40:11 - Attacked npc: 2042, at location: [82,89,0],[50,49]
2018/05/04 21:40:20 - Pressed 271, button: 62, button2: 0
2018/05/04 21:40:22 - Attacked npc: 2042, at location: [82,89,0],[50,49]
2018/05/04 21:40:23 - Pressed 548, button: 33, button2: 0
2018/05/04 21:40:42 - Attacked npc: 2042, at location: [73,85,0],[49,53]
2018/05/04 21:40:44 - Pressed 548, button: 35, button2: 0
2018/05/04 21:40:45 - Pressed 271, button: 39, button2: 0
2018/05/04 21:40:45 - Attacked npc: 2042, at location: [73,85,0],[49,53]
2018/05/04 21:40:45 - Attacked npc: 2042, at location: [73,85,0],[49,53]
2018/05/04 21:40:48 - Pressed 271, button: 37, button2: 0
2018/05/04 21:40:49 - Attacked npc: 2042, at location: [73,85,0],[49,53]
2018/05/04 21:40:55 - Pressed 548, button: 33, button2: 0
2018/05/04 21:44:15 - Pressed 548, button: 36, button2: 0
2018/05/04 21:44:16 - Pressed 665, button: 0, button2: 0
2018/05/04 21:44:17 - Pressed 548, button: 33, button2: 0
2018/05/04 21:44:19 - Clicked item: 13441, on inter: 149, in slot: 5.
2018/05/04 21:45:36 - Clicked item: 13441, on inter: 149, in slot: 4.
2018/05/04 21:45:37 - Click1 npc: 4398, at location: [3089,3488,0],[49,48]
2018/05/04 22:02:42 - Attacked npc: 2042, at location: [82,89,0],[50,49]
2018/05/04 22:03:01 - Attacked npc: 2042, at location: [82,89,0],[50,49]
2018/05/04 22:03:12 - Attacked npc: 2042, at location: [82,89,0],[50,49]
2018/05/04 22:03:15 - Pressed 548, button: 35, button2: 0
2018/05/04 22:03:16 - Pressed 548, button: 36, button2: 0
2018/05/04 22:03:25 - Pressed 548, button: 35, button2: 0
2018/05/04 22:03:25 - Pressed 271, button: 41, button2: 0
2018/05/04 22:03:26 - Pressed 548, button: 33, button2: 0
2018/05/04 22:03:33 - Attacked npc: 2042, at location: [82,89,0],[50,49]
2018/05/04 22:03:33 - Attacked npc: 2042, at location: [82,89,0],[50,49]
2018/05/04 22:03:36 - Attacked npc: 2042, at location: [82,89,0],[50,49]
2018/05/04 22:08:46 - Logged in from 127.0.0.1 and mac 0A-00-27-00-00-00.
2018/05/04 22:08:47 - Pressed 378, button: 6, button2: 0
2018/05/04 22:08:51 - Used command tele 2200 3055
2018/05/04 22:08:57 - Pressed 548, button: 30, button2: 0
2018/05/04 22:08:59 - Pressed 548, button: 35, button2: 0
2018/05/04 22:08:59 - Pressed 271, button: 43, button2: 0
2018/05/04 22:09:03 - Used command item 2444
2018/05/04 22:09:04 - Pressed 548, button: 32, button2: 0
2018/05/04 22:09:05 - Pressed 548, button: 33, button2: 0
2018/05/04 22:09:06 - Clicked item: 2444, on inter: 149, in slot: 0.
2018/05/04 22:09:07 - Clicked item: 13441, on inter: 149, in slot: 6.
2018/05/04 22:09:07 - Pressed 548, button: 35, button2: 0
2018/05/04 22:09:08 - Pressed 271, button: 39, button2: 0
2018/05/04 22:09:09 - Attacked npc: 2042, at location: [82,89,0],[50,49]
2018/05/04 22:09:34 - Pressed 271, button: 41, button2: 0
2018/05/04 22:10:09 - Pressed 271, button: 37, button2: 0
2018/05/04 22:10:10 - Attacked npc: 2042, at location: [82,89,0],[50,49]
2018/05/04 22:10:14 - Attacked npc: 2042, at location: [82,89,0],[50,49]
2018/05/04 22:10:16 - Pressed 548, button: 30, button2: 0
2018/05/04 22:10:17 - Pressed 548, button: 33, button2: 0
2018/05/04 22:10:18 - Attacked npc: 2042, at location: [82,89,0],[50,49]
2018/05/04 22:10:36 - Attacked npc: 2042, at location: [81,78,0],[49,54]
2018/05/04 22:10:50 - Pressed 548, button: 34, button2: 0
2018/05/04 22:10:52 - Pressed 548, button: 33, button2: 0
2018/05/04 22:12:23 - Pressed 548, button: 35, button2: 0
2018/05/04 22:12:24 - Pressed 271, button: 37, button2: 0
2018/05/04 22:12:25 - Pressed 271, button: 37, button2: 0
2018/05/04 22:12:26 - Pressed 548, button: 36, button2: 0
2018/05/04 22:12:27 - Pressed 665, button: 0, button2: 0
2018/05/04 22:12:33 - Pressed 548, button: 35, button2: 0
2018/05/04 22:12:34 - Pressed 271, button: 37, button2: 0
2018/05/04 22:13:09 - Pressed 548, button: 16, button2: 0
2018/05/04 22:13:10 - Pressed 182, button: 6, button2: 0
2018/05/04 22:15:24 - Logged in from 127.0.0.1 and mac 0A-00-27-00-00-00.
2018/05/04 22:15:35 - Pressed 378, button: 6, button2: 0
2018/05/04 22:15:38 - Click1 npc: 4398, at location: [3089,3489,0],[49,49]
2018/05/04 22:15:48 - Pressed 548, button: 30, button2: 0
2018/05/04 22:15:53 - Pressed 548, button: 33, button2: 0
2018/05/04 22:15:54 - Clicked item: 169, on inter: 149, in slot: 0.
2018/05/04 22:15:54 - Attacked npc: 2042, at location: [82,89,0],[50,49]
2018/05/04 22:15:55 - Attacked npc: 2042, at location: [82,89,0],[50,49]
2018/05/04 22:15:56 - Pressed 548, button: 35, button2: 0
2018/05/04 22:15:56 - Pressed 271, button: 43, button2: 0
2018/05/04 22:15:57 - Attacked npc: 2042, at location: [82,89,0],[50,49]
2018/05/04 22:16:00 - Attacked npc: 2042, at location: [82,89,0],[50,49]
2018/05/04 22:16:03 - Attacked npc: 2042, at location: [82,89,0],[50,49]
2018/05/04 22:16:05 - Attacked npc: 2042, at location: [82,89,0],[50,49]
2018/05/04 22:16:07 - Pressed 548, button: 33, button2: 0
2018/05/04 22:16:29 - Clicked item: 171, on inter: 149, in slot: 0.
2018/05/04 22:16:30 - Pressed 548, button: 35, button2: 0
2018/05/04 22:16:30 - Pressed 271, button: 41, button2: 0
2018/05/04 22:16:31 - Attacked npc: 2042, at location: [82,89,0],[50,49]
2018/05/04 22:17:40 - Pressed 548, button: 30, button2: 0
2018/05/04 22:17:41 - Attacked npc: 2042, at location: [81,78,0],[49,54]
2018/05/04 22:17:43 - Attacked npc: 2042, at location: [81,78,0],[49,54]
2018/05/04 22:17:46 - Attacked npc: 2042, at location: [81,78,0],[49,54]
2018/05/04 22:17:46 - Attacked npc: 2042, at location: [81,78,0],[49,54]
2018/05/04 22:17:46 - Attacked npc: 2042, at location: [81,78,0],[49,54]
2018/05/04 22:17:48 - Pressed 548, button: 33, button2: 0
2018/05/04 22:17:59 - Used command item 892 1000
2018/05/04 22:18:00 - Equipped item: 892, into slot: 1, on inter: 149
2018/05/04 22:18:02 - Used command maxhit
2018/05/04 22:18:03 - Attacked npc: 2045, at location: [82,84,0],[50,52]
2018/05/04 22:18:04 - Attacked npc: 2042, at location: [82,89,0],[50,49]
2018/05/04 22:18:05 - Equipped item: 11212, into slot: 1, on inter: 149
2018/05/04 22:18:05 - Attacked npc: 2042, at location: [82,89,0],[50,49]
2018/05/04 22:18:20 - Attacked npc: 2045, at location: [85,85,0],[53,53]
2018/05/04 22:18:24 - Attacked npc: 2045, at location: [88,86,0],[48,54]
2018/05/04 22:23:04 - Logged in from 127.0.0.1 and mac 0A-00-27-00-00-00.
2018/05/04 22:23:07 - Pressed 378, button: 6, button2: 0
2018/05/04 22:23:20 - Click1 npc: 4398, at location: [3087,3486,0],[55,54]
2018/05/04 22:23:21 - Click1 npc: 4398, at location: [3088,3487,0],[48,55]
2018/05/04 22:24:06 - Attacked npc: 2042, at location: [82,89,0],[50,49]
2018/05/04 22:24:07 - Pressed 548, button: 30, button2: 0
2018/05/04 22:24:08 - Pressed 548, button: 33, button2: 0
2018/05/04 22:24:08 - Clicked item: 169, on inter: 149, in slot: 0.
2018/05/04 22:24:09 - Pressed 548, button: 30, button2: 0
2018/05/04 22:24:12 - Attacked npc: 2042, at location: [82,89,0],[50,49]
2018/05/04 22:24:13 - Pressed 548, button: 35, button2: 0
2018/05/04 22:24:14 - Pressed 271, button: 43, button2: 0
2018/05/04 22:24:15 - Pressed 548, button: 33, button2: 0
2018/05/04 22:24:15 - Clicked item: 13441, on inter: 149, in slot: 9.
2018/05/04 22:24:16 - Clicked item: 171, on inter: 149, in slot: 0.
2018/05/04 22:24:16 - Attacked npc: 2042, at location: [82,89,0],[50,49]
2018/05/04 22:24:18 - Attacked npc: 2042, at location: [82,89,0],[50,49]
2018/05/04 22:25:45 - Attacked npc: 2042, at location: [81,78,0],[49,54]
2018/05/04 22:25:45 - Pressed 548, button: 35, button2: 0
2018/05/04 22:25:46 - Pressed 548, button: 33, button2: 0
2018/05/04 22:26:27 - Attacked npc: 2042, at location: [82,89,0],[50,49]
2018/05/04 22:26:33 - Attacked npc: 2045, at location: [85,85,0],[53,53]
