2018/04/29 00:00:28 - Logged in from 127.0.0.1 and mac 0A-00-27-00-00-00.
2018/04/29 00:00:29 - Pressed 378, button: 6, button2: 0
2018/04/29 00:01:18 - Logged in from 127.0.0.1 and mac 0A-00-27-00-00-00.
2018/04/29 00:01:24 - Pressed 378, button: 6, button2: 0
2018/04/29 00:01:48 - Attacked npc: 2042, at location: [82,89,0],[50,49]
2018/04/29 00:01:58 - Attacked npc: 2042, at location: [82,89,0],[50,49]
2018/04/29 00:34:27 - Pressed 548, button: 16, button2: 0
2018/04/29 00:34:32 - Pressed 182, button: 6, button2: 0
2018/04/29 00:34:32 - Pressed 182, button: 6, button2: 0
2018/04/29 00:34:32 - Pressed 182, button: 6, button2: 0
2018/04/29 00:34:32 - Pressed 182, button: 6, button2: 0
2018/04/29 00:34:32 - Pressed 182, button: 6, button2: 0
2018/04/29 00:34:32 - Pressed 182, button: 6, button2: 0
2018/04/29 00:34:32 - Pressed 182, button: 6, button2: 0
2018/04/29 00:34:32 - Pressed 182, button: 6, button2: 0
2018/04/29 00:34:32 - Pressed 182, button: 6, button2: 0
2018/04/29 00:34:35 - Logged in from 127.0.0.1 and mac 0A-00-27-00-00-00.
2018/04/29 00:34:35 - Pressed 378, button: 6, button2: 0
2018/04/29 00:45:42 - Logged in from 127.0.0.1 and mac 0A-00-27-00-00-00.
2018/04/29 00:46:59 - Logged in from 127.0.0.1 and mac 0A-00-27-00-00-00.
2018/04/29 00:47:01 - Pressed 378, button: 6, button2: 0
2018/04/29 00:49:19 - Logged in from 127.0.0.1 and mac 0A-00-27-00-00-00.
2018/04/29 00:49:20 - Pressed 378, button: 6, button2: 0
2018/04/29 00:50:33 - Logged in from 127.0.0.1 and mac 0A-00-27-00-00-00.
2018/04/29 00:50:33 - Pressed 378, button: 6, button2: 0
2018/04/29 00:51:13 - Attacked npc: 2042, at location: [82,89,0],[50,49]
2018/04/29 00:51:17 - Attacked npc: 2042, at location: [82,89,0],[50,49]
2018/04/29 00:51:24 - Attacked npc: 2042, at location: [82,89,0],[50,49]
2018/04/29 00:52:29 - Logged in from 127.0.0.1 and mac 0A-00-27-00-00-00.
2018/04/29 00:52:30 - Pressed 378, button: 6, button2: 0
2018/04/29 00:53:15 - Logged in from 127.0.0.1 and mac 0A-00-27-00-00-00.
2018/04/29 00:53:16 - Pressed 378, button: 6, button2: 0
2018/04/29 00:54:23 - Logged in from 127.0.0.1 and mac 0A-00-27-00-00-00.
2018/04/29 00:54:24 - Pressed 378, button: 6, button2: 0
2018/04/29 00:54:40 - Attacked npc: 2042, at location: [82,89,0],[50,49]
2018/04/29 00:59:28 - Logged in from 127.0.0.1 and mac 0A-00-27-00-00-00.
2018/04/29 00:59:32 - Pressed 378, button: 6, button2: 0
2018/04/29 01:00:47 - Logged in from 127.0.0.1 and mac 0A-00-27-00-00-00.
2018/04/29 01:00:48 - Pressed 378, button: 6, button2: 0
2018/04/29 01:01:41 - Logged in from 127.0.0.1 and mac 0A-00-27-00-00-00.
2018/04/29 01:01:42 - Pressed 378, button: 6, button2: 0
2018/04/29 01:01:50 - Attacked npc: 2042, at location: [82,89,0],[50,49]
2018/04/29 01:03:09 - Logged in from 127.0.0.1 and mac 0A-00-27-00-00-00.
2018/04/29 01:03:10 - Pressed 378, button: 6, button2: 0
2018/04/29 01:03:16 - Attacked npc: 2042, at location: [82,89,0],[50,49]
2018/04/29 01:03:19 - Attacked npc: 2042, at location: [82,89,0],[50,49]
2018/04/29 01:03:21 - Attacked npc: 2042, at location: [82,89,0],[50,49]
2018/04/29 01:05:41 - Logged in from 127.0.0.1 and mac 0A-00-27-00-00-00.
2018/04/29 01:05:42 - Pressed 378, button: 6, button2: 0
2018/04/29 01:07:27 - Logged in from 127.0.0.1 and mac 0A-00-27-00-00-00.
2018/04/29 01:07:28 - Pressed 378, button: 6, button2: 0
2018/04/29 01:07:37 - Attacked npc: 2042, at location: [82,89,0],[50,49]
2018/04/29 01:10:09 - Logged in from 127.0.0.1 and mac 0A-00-27-00-00-00.
2018/04/29 01:10:10 - Pressed 378, button: 6, button2: 0
2018/04/29 01:10:55 - Logged in from 127.0.0.1 and mac 0A-00-27-00-00-00.
2018/04/29 01:10:56 - Pressed 378, button: 6, button2: 0
2018/04/29 01:12:16 - Attacked npc: 2042, at location: [82,89,0],[50,49]
2018/04/29 01:12:19 - Attacked npc: 2042, at location: [82,89,0],[50,49]
2018/04/29 01:12:25 - Attacked npc: 2042, at location: [82,89,0],[50,49]
2018/04/29 01:12:27 - Attacked npc: 2042, at location: [82,89,0],[50,49]
2018/04/29 01:12:30 - Pressed 548, button: 35, button2: 0
2018/04/29 01:12:31 - Pressed 271, button: 43, button2: 0
2018/04/29 01:13:28 - Attacked npc: 2042, at location: [82,89,0],[50,49]
2018/04/29 01:15:31 - Logged in from 127.0.0.1 and mac 0A-00-27-00-00-00.
2018/04/29 01:15:32 - Pressed 378, button: 6, button2: 0
2018/04/29 01:15:41 - Attacked npc: 2042, at location: [82,89,0],[50,49]
2018/04/29 01:17:21 - Logged in from 127.0.0.1 and mac 0A-00-27-00-00-00.
2018/04/29 01:17:22 - Pressed 378, button: 6, button2: 0
2018/04/29 01:17:32 - Attacked npc: 2042, at location: [82,89,0],[50,49]
2018/04/29 01:18:34 - Logged in from 127.0.0.1 and mac 0A-00-27-00-00-00.
2018/04/29 01:18:35 - Pressed 378, button: 6, button2: 0
2018/04/29 01:20:55 - Logged in from 127.0.0.1 and mac 0A-00-27-00-00-00.
2018/04/29 01:20:56 - Pressed 378, button: 6, button2: 0
2018/04/29 01:23:41 - Logged in from 127.0.0.1 and mac 0A-00-27-00-00-00.
2018/04/29 01:23:42 - Pressed 378, button: 6, button2: 0
2018/04/29 01:25:01 - Used command tele 1,1,1,20,21
2018/04/29 01:25:27 - Pressed 548, button: 16, button2: 0
2018/04/29 01:25:27 - Pressed 182, button: 6, button2: 0
2018/04/29 01:25:31 - Logged in from 127.0.0.1 and mac 0A-00-27-00-00-00.
2018/04/29 01:25:33 - Pressed 378, button: 6, button2: 0
2018/04/29 01:25:40 - Used command tele 2200 3055
2018/04/29 01:25:42 - Pressed 548, button: 16, button2: 0
2018/04/29 01:25:42 - Pressed 182, button: 6, button2: 0
2018/04/29 01:26:42 - Logged in from 127.0.0.1 and mac 0A-00-27-00-00-00.
2018/04/29 01:26:43 - Pressed 378, button: 6, button2: 0
2018/04/29 01:26:56 - Used command pos
2018/04/29 01:27:02 - Used command tele 2213 3057 0
2018/04/29 01:28:35 - Logged in from 127.0.0.1 and mac 0A-00-27-00-00-00.
2018/04/29 01:28:36 - Pressed 378, button: 6, button2: 0
2018/04/29 01:28:51 - Used command tele 2200 3055 0
2018/04/29 01:33:48 - Pressed 548, button: 16, button2: 0
2018/04/29 01:33:49 - Pressed 182, button: 6, button2: 0
2018/04/29 01:34:25 - Logged in from 127.0.0.1 and mac 0A-00-27-00-00-00.
2018/04/29 01:34:28 - Pressed 378, button: 6, button2: 0
2018/04/29 01:34:48 - Used command pos
2018/04/29 01:35:50 - Attacked npc: 2042, at location: [82,217,0],[50,49]
2018/04/29 01:39:10 - Logged in from 127.0.0.1 and mac 0A-00-27-00-00-00.
2018/04/29 01:39:13 - Pressed 378, button: 6, button2: 0
2018/04/29 01:39:50 - Attacked npc: 2042, at location: [82,89,0],[50,49]
2018/04/29 01:42:43 - Attacked npc: 2042, at location: [82,89,0],[50,49]
2018/04/29 01:44:02 - Attacked npc: 2042, at location: [82,89,0],[50,49]
2018/04/29 01:44:32 - Attacked npc: 2042, at location: [82,89,0],[50,49]
2018/04/29 01:45:59 - Attacked npc: 2042, at location: [82,89,0],[50,49]
2018/04/29 01:51:38 - Logged in from 127.0.0.1 and mac 0A-00-27-00-00-00.
2018/04/29 01:51:39 - Pressed 378, button: 6, button2: 0
2018/04/29 01:52:17 - Pressed 548, button: 16, button2: 0
2018/04/29 01:52:55 - Logged in from 127.0.0.1 and mac 0A-00-27-00-00-00.
2018/04/29 01:52:56 - Pressed 378, button: 6, button2: 0
2018/04/29 01:53:01 - Used command tele 2200 3055
2018/04/29 09:57:39 - Logged in from 127.0.0.1 and mac 0A-00-27-00-00-00.
2018/04/29 09:57:41 - Pressed 378, button: 6, button2: 0
2018/04/29 09:57:47 - Used command tele 2200 3055
2018/04/29 10:00:29 - Logged in from 127.0.0.1 and mac 0A-00-27-00-00-00.
2018/04/29 10:00:32 - Pressed 378, button: 6, button2: 0
2018/04/29 10:00:47 - Used command tele 2200 3055
2018/04/29 10:02:14 - Logged in from 127.0.0.1 and mac 0A-00-27-00-00-00.
2018/04/29 10:02:15 - Pressed 378, button: 6, button2: 0
2018/04/29 10:02:20 - Used command tele 2200 3055
2018/04/29 10:03:23 - Logged in from 127.0.0.1 and mac 0A-00-27-00-00-00.
2018/04/29 10:03:24 - Pressed 378, button: 6, button2: 0
2018/04/29 10:03:30 - Used command tele 2200 3055
2018/04/29 10:04:19 - Logged in from 127.0.0.1 and mac 0A-00-27-00-00-00.
2018/04/29 10:04:19 - Pressed 378, button: 6, button2: 0
2018/04/29 10:04:24 - Used command tele 2200 3055
2018/04/29 10:05:17 - Logged in from 127.0.0.1 and mac 0A-00-27-00-00-00.
2018/04/29 10:05:20 - Pressed 378, button: 6, button2: 0
2018/04/29 10:05:45 - Logged in from 127.0.0.1 and mac 0A-00-27-00-00-00.
2018/04/29 10:05:47 - Pressed 378, button: 6, button2: 0
2018/04/29 10:05:52 - Used command tele 2200 3055
2018/04/29 10:08:25 - Logged in from 127.0.0.1 and mac 0A-00-27-00-00-00.
2018/04/29 10:08:26 - Pressed 378, button: 6, button2: 0
2018/04/29 10:08:33 - Used command tele 2200 3055
2018/04/29 10:11:25 - Logged in from 127.0.0.1 and mac 0A-00-27-00-00-00.
2018/04/29 10:11:27 - Pressed 378, button: 6, button2: 0
2018/04/29 10:11:32 - Used command tele 2200 3055
2018/04/29 10:13:59 - Logged in from 127.0.0.1 and mac 0A-00-27-00-00-00.
2018/04/29 10:14:00 - Pressed 378, button: 6, button2: 0
2018/04/29 10:14:05 - Used command tele 2200 3055
2018/04/29 10:16:35 - Attacked npc: 2042, at location: [82,89,0],[50,49]
2018/04/29 10:16:38 - Used command item 892 10000
2018/04/29 10:16:40 - Equipped item: 892, into slot: 2, on inter: 149
2018/04/29 10:16:41 - Attacked npc: 2042, at location: [82,89,0],[50,49]
2018/04/29 10:16:45 - Attacked npc: 2042, at location: [82,89,0],[50,49]
2018/04/29 10:16:57 - Attacked npc: 2042, at location: [82,89,0],[50,49]
2018/04/29 10:18:05 - Attacked npc: 2042, at location: [77,79,0],[53,55]
2018/04/29 10:18:25 - Attacked npc: 2042, at location: [77,79,0],[53,55]
2018/04/29 10:18:31 - Attacked npc: 2042, at location: [77,79,0],[53,55]
2018/04/29 10:18:33 - Attacked npc: 2042, at location: [77,79,0],[53,55]
2018/04/29 10:19:42 - Logged in from 127.0.0.1 and mac 0A-00-27-00-00-00.
2018/04/29 10:19:44 - Pressed 378, button: 6, button2: 0
2018/04/29 10:19:49 - Used command tele 2200 3055
2018/04/29 10:20:02 - Attacked npc: 2042, at location: [82,89,0],[50,49]
2018/04/29 10:20:30 - Used command pos
2018/04/29 10:20:36 - Used command pos
2018/04/29 10:20:52 - Used command pos 
2018/04/29 10:24:08 - Logged in from 127.0.0.1 and mac 0A-00-27-00-00-00.
2018/04/29 10:24:10 - Pressed 378, button: 6, button2: 0
2018/04/29 10:24:14 - Used command tele 2200 3055
2018/04/29 10:25:04 - Logged in from 127.0.0.1 and mac 0A-00-27-00-00-00.
2018/04/29 10:25:05 - Pressed 378, button: 6, button2: 0
2018/04/29 10:25:10 - Used command tele 2200 3055
2018/04/29 10:25:23 - Attacked npc: 2042, at location: [77,79,0],[53,55]
2018/04/29 10:25:25 - Attacked npc: 2042, at location: [77,79,0],[53,55]
2018/04/29 10:25:28 - Attacked npc: 2042, at location: [77,79,0],[53,55]
2018/04/29 10:27:15 - Logged in from 127.0.0.1 and mac 0A-00-27-00-00-00.
2018/04/29 10:27:16 - Pressed 378, button: 6, button2: 0
2018/04/29 10:27:20 - Used command tele 2200 3055
2018/04/29 10:27:21 - Pressed 548, button: 16, button2: 0
2018/04/29 10:27:21 - Pressed 182, button: 6, button2: 0
2018/04/29 10:27:23 - Logged in from 127.0.0.1 and mac 0A-00-27-00-00-00.
2018/04/29 10:27:24 - Pressed 378, button: 6, button2: 0
2018/04/29 10:27:34 - Attacked npc: 2042, at location: [82,89,0],[50,49]
2018/04/29 10:30:30 - Logged in from 127.0.0.1 and mac 0A-00-27-00-00-00.
2018/04/29 10:30:31 - Pressed 378, button: 6, button2: 0
2018/04/29 10:33:00 - Logged in from 127.0.0.1 and mac 0A-00-27-00-00-00.
2018/04/29 10:33:01 - Pressed 378, button: 6, button2: 0
2018/04/29 10:33:45 - Logged in from 127.0.0.1 and mac 0A-00-27-00-00-00.
2018/04/29 10:33:45 - Pressed 378, button: 6, button2: 0
2018/04/29 10:35:17 - Logged in from 127.0.0.1 and mac 0A-00-27-00-00-00.
2018/04/29 10:35:17 - Pressed 378, button: 6, button2: 0
2018/04/29 10:36:41 - Logged in from 127.0.0.1 and mac 0A-00-27-00-00-00.
2018/04/29 10:36:43 - Pressed 378, button: 6, button2: 0
2018/04/29 10:37:05 - Logged in from 127.0.0.1 and mac 0A-00-27-00-00-00.
2018/04/29 10:37:06 - Pressed 378, button: 6, button2: 0
2018/04/29 10:38:31 - Logged in from 127.0.0.1 and mac 0A-00-27-00-00-00.
2018/04/29 10:38:33 - Pressed 378, button: 6, button2: 0
2018/04/29 10:39:31 - Logged in from 127.0.0.1 and mac 0A-00-27-00-00-00.
2018/04/29 10:39:32 - Pressed 378, button: 6, button2: 0
2018/04/29 10:41:37 - Attacked npc: 2042, at location: [82,89,0],[50,49]
2018/04/29 10:41:39 - Attacked npc: 2042, at location: [82,89,0],[50,49]
2018/04/29 10:41:43 - Pressed 548, button: 35, button2: 0
2018/04/29 10:41:44 - Pressed 271, button: 43, button2: 0
2018/04/29 10:41:46 - Pressed 548, button: 33, button2: 0
2018/04/29 10:46:33 - Attacked npc: 2042, at location: [81,78,0],[49,54]
2018/04/29 10:46:36 - Attacked npc: 2042, at location: [81,78,0],[49,54]
2018/04/29 10:46:43 - Used command bank
2018/04/29 10:46:45 - Clicked item1 11802,0,12,36.
2018/04/29 10:46:47 - Pressed 12, button: 37, button2: 0
2018/04/29 10:46:48 - Closed Interface: 12
2018/04/29 10:47:28 - Used command item 11771 1
2018/04/29 10:47:29 - Equipped item: 11771, into slot: 2, on inter: 149
2018/04/29 10:47:40 - Said :item 11828 1.
2018/04/29 10:47:44 - Used command item 11828 1
2018/04/29 10:47:48 - Used command item 11830 1
2018/04/29 10:47:50 - Equipped item: 11828, into slot: 2, on inter: 149
2018/04/29 10:47:50 - Equipped item: 11830, into slot: 3, on inter: 149
2018/04/29 10:48:01 - Used command item 19553 1
2018/04/29 10:48:03 - Equipped item: 19553, into slot: 2, on inter: 149
2018/04/29 10:48:04 - Equipped item: 19553, into slot: 2, on inter: 149
2018/04/29 10:48:05 - Equipped item: 19553, into slot: 2, on inter: 149
2018/04/29 10:48:05 - Equipped item: 19553, into slot: 2, on inter: 149
2018/04/29 10:48:05 - Equipped item: 19553, into slot: 2, on inter: 149
2018/04/29 10:48:07 - Equipped item: 19553, into slot: 2, on inter: 149
2018/04/29 10:48:07 - Equipped item: 19553, into slot: 2, on inter: 149
2018/04/29 10:48:13 - Pressed 548, button: 16, button2: 0
2018/04/29 10:48:14 - Pressed 182, button: 6, button2: 0
2018/04/29 10:48:16 - Logged in from 127.0.0.1 and mac 0A-00-27-00-00-00.
2018/04/29 10:48:17 - Pressed 378, button: 6, button2: 0
2018/04/29 10:48:18 - Pressed 548, button: 34, button2: 0
2018/04/29 10:48:18 - Pressed 387, button: 51, button2: 0
2018/04/29 10:48:19 - Pressed 548, button: 33, button2: 0
2018/04/29 10:48:19 - Equipped item: 19553, into slot: 2, on inter: 149
2018/04/29 10:48:20 - Pressed 548, button: 34, button2: 0
2018/04/29 10:48:21 - Pressed 548, button: 33, button2: 0
2018/04/29 10:48:22 - Pressed 548, button: 34, button2: 0
2018/04/29 10:48:24 - Pressed 548, button: 36, button2: 0
2018/04/29 10:48:25 - Pressed 548, button: 33, button2: 0
2018/04/29 10:48:26 - Pressed 548, button: 36, button2: 0
2018/04/29 10:48:26 - Pressed 665, button: 0, button2: 0
2018/04/29 10:48:27 - Pressed 548, button: 33, button2: 0
2018/04/29 10:48:31 - Pressed 548, button: 35, button2: 0
2018/04/29 10:48:32 - Pressed 548, button: 34, button2: 0
2018/04/29 10:48:33 - Used command tele ::ld
2018/04/29 10:48:50 - Pressed 548, button: 32, button2: 0
2018/04/29 10:48:57 - Used command item 13237 1
2018/04/29 10:48:58 - Pressed 548, button: 33, button2: 0
2018/04/29 10:48:59 - Equipped item: 13237, into slot: 3, on inter: 149
2018/04/29 10:49:13 - Used command item 7462 2
2018/04/29 10:49:14 - Equipped item: 7462, into slot: 4, on inter: 149
2018/04/29 10:49:16 - Used command bank
2018/04/29 10:49:17 - Clicked item1 19553,2,15,0.
2018/04/29 10:49:17 - Banked 1 x Amulet of torture (19553)
2018/04/29 10:49:17 - Clicked item1 7462,3,15,0.
2018/04/29 10:49:17 - Banked 1 x Barrows gloves (7462)
2018/04/29 10:49:18 - Closed Interface: 12
2018/04/29 10:49:21 - Pressed 548, button: 34, button2: 0
2018/04/29 10:49:29 - Pressed 548, button: 33, button2: 0
2018/04/29 10:49:32 - Used command item 10828 1
2018/04/29 10:49:33 - Equipped item: 10828, into slot: 2, on inter: 149
2018/04/29 10:49:50 - Used command item 11337
2018/04/29 10:49:53 - Used command item 13337
2018/04/29 10:49:55 - Equipped item: 13337, into slot: 3, on inter: 149
2018/04/29 10:49:57 - Dropped 1 x Mangled bones from slot: 2 at [3087,3499,0],[55,51]
2018/04/29 10:50:06 - Closed Interface: 12
2018/04/29 10:50:07 - Equipped item: 21295, into slot: 3, on inter: 149
2018/04/29 10:50:09 - Clicked item1 13337,3,15,0.
2018/04/29 10:50:09 - Banked 1 x Ava's max cape (13337)
2018/04/29 10:50:09 - Clicked item1 526,1,15,0.
2018/04/29 10:50:09 - Banked 1 x Bones (526)
2018/04/29 10:50:12 - Clicked item1 313,0,15,0.
2018/04/29 10:50:12 - Banked 1 x Fishing bait (313)
2018/04/29 10:50:13 - Closed Interface: 12
2018/04/29 10:50:17 - Pressed 548, button: 36, button2: 0
2018/04/29 10:50:21 - Used command tele 2200 3055
2018/04/29 10:50:22 - Pressed 548, button: 33, button2: 0
2018/04/29 10:50:35 - Attacked npc: 2042, at location: [81,206,0],[49,54]
2018/04/29 10:50:35 - Attacked npc: 2042, at location: [81,206,0],[49,54]
2018/04/29 10:50:49 - Attacked npc: 2042, at location: [82,217,0],[50,49]
2018/04/29 10:51:08 - Used command item 20389 1000
2018/04/29 10:51:09 - Equipped item: 20389, into slot: 0, on inter: 149
2018/04/29 10:51:11 - Attacked npc: 2042, at location: [90,212,0],[50,52]
2018/04/29 10:51:14 - Pressed 548, button: 16, button2: 0
2018/04/29 10:51:16 - Pressed 182, button: 6, button2: 0
2018/04/29 10:51:19 - Pressed 182, button: 6, button2: 0
2018/04/29 10:51:19 - Pressed 182, button: 6, button2: 0
2018/04/29 10:51:19 - Pressed 182, button: 6, button2: 0
2018/04/29 10:51:20 - Pressed 182, button: 6, button2: 0
2018/04/29 10:51:20 - Pressed 182, button: 6, button2: 0
2018/04/29 10:51:20 - Pressed 182, button: 6, button2: 0
2018/04/29 10:51:20 - Pressed 182, button: 6, button2: 0
2018/04/29 10:51:24 - Pressed 548, button: 33, button2: 0
2018/04/29 10:51:26 - Used command item 892 1000
2018/04/29 10:51:27 - Equipped item: 892, into slot: 0, on inter: 149
2018/04/29 10:51:28 - Attacked npc: 2042, at location: [90,212,0],[50,52]
2018/04/29 10:52:06 - Used command item 11212 1000
2018/04/29 10:52:29 - Dropped 1000 x Dragon arrow from slot: 0 at [84,213,0],[52,53]
2018/04/29 10:52:29 - Equipped item: 11212, into slot: 1, on inter: 149
2018/04/29 10:52:30 - Attacked npc: 2042, at location: [82,217,0],[50,49]
2018/04/29 10:52:37 - Attacked npc: 2042, at location: [77,215,0],[53,55]
2018/04/29 10:52:38 - Attacked npc: 2042, at location: [77,215,0],[53,55]
2018/04/29 10:53:34 - Logged in from 127.0.0.1 and mac 0A-00-27-00-00-00.
2018/04/29 10:53:35 - Pressed 378, button: 6, button2: 0
2018/04/29 10:53:49 - Used command tele 2200 3055
2018/04/29 10:54:01 - Attacked npc: 2042, at location: [81,78,0],[49,54]
2018/04/29 10:54:04 - Pressed 548, button: 34, button2: 0
2018/04/29 10:54:06 - Pressed 548, button: 33, button2: 0
2018/04/29 10:54:10 - Used command item 11212 1000
2018/04/29 10:54:12 - Equipped item: 11212, into slot: 3, on inter: 149
2018/04/29 10:54:12 - Attacked npc: 2042, at location: [81,78,0],[49,54]
2018/04/29 10:54:16 - Equipped item: 19553, into slot: 2, on inter: 149
2018/04/29 10:54:16 - Pressed 548, button: 34, button2: 0
2018/04/29 10:54:17 - Pressed 548, button: 33, button2: 0
2018/04/29 10:54:20 - swapped from 2 to 7 inter 149
2018/04/29 10:54:23 - Attacked npc: 2042, at location: [81,78,0],[49,54]
2018/04/29 10:54:24 - Pressed 548, button: 34, button2: 0
2018/04/29 10:54:26 - Attacked npc: 2042, at location: [81,78,0],[49,54]
2018/04/29 10:54:26 - Attacked npc: 2042, at location: [81,78,0],[49,54]
2018/04/29 10:54:28 - Attacked npc: 2042, at location: [81,78,0],[49,54]
2018/04/29 10:54:29 - Pressed 548, button: 32, button2: 0
2018/04/29 10:54:30 - Pressed 548, button: 33, button2: 0
2018/04/29 10:57:03 - Logged in from 127.0.0.1 and mac 0A-00-27-00-00-00.
2018/04/29 10:57:05 - Pressed 378, button: 6, button2: 0
2018/04/29 10:57:10 - Used command tele 2200 3055
2018/04/29 10:57:59 - Logged in from 127.0.0.1 and mac 0A-00-27-00-00-00.
2018/04/29 10:58:00 - Pressed 378, button: 6, button2: 0
2018/04/29 10:58:06 - Used command tele 2200 3055
2018/04/29 10:58:17 - Pressed 548, button: 34, button2: 0
2018/04/29 10:58:17 - Pressed 548, button: 33, button2: 0
2018/04/29 10:58:21 - Used command item 11212 1000
2018/04/29 10:58:22 - Equipped item: 11212, into slot: 3, on inter: 149
2018/04/29 10:58:24 - Dropped 1 x Amulet of torture from slot: 2 at [82,86,0],[50,54]
2018/04/29 10:58:25 - Attacked npc: 2042, at location: [74,84,0],[50,52]
2018/04/29 10:58:29 - Attacked npc: 2042, at location: [74,84,0],[50,52]
2018/04/29 10:58:31 - Attacked npc: 2042, at location: [74,84,0],[50,52]
2018/04/29 10:59:30 - Logged in from 127.0.0.1 and mac 0A-00-27-00-00-00.
2018/04/29 10:59:31 - Pressed 378, button: 6, button2: 0
2018/04/29 10:59:34 - Used command tele 2200 3055
2018/04/29 10:59:42 - Used command item 11212 100
2018/04/29 10:59:46 - Used command item 11212 1000
2018/04/29 10:59:48 - Equipped item: 11212, into slot: 3, on inter: 149
2018/04/29 10:59:49 - Dropped 1 x Amulet of torture from slot: 2 at [84,85,0],[52,53]
2018/04/29 10:59:50 - Attacked npc: 2042, at location: [90,84,0],[50,52]
2018/04/29 11:00:47 - Used command item 20366 1
2018/04/29 11:00:49 - Equipped item: 20366, into slot: 2, on inter: 149
2018/04/29 11:00:53 - Used command bank
2018/04/29 11:00:54 - Clicked item1 19553,2,15,0.
2018/04/29 11:00:54 - Banked 1 x Amulet of torture (19553)
2018/04/29 11:00:57 - Clicked item1 10828,17,12,7.
2018/04/29 11:00:58 - Closed Interface: 12
2018/04/29 11:00:59 - Equipped item: 10828, into slot: 2, on inter: 149
2018/04/29 11:01:00 - Pressed 548, button: 34, button2: 0
2018/04/29 11:01:03 - Used command item 7062 1
2018/04/29 11:01:04 - Pressed 548, button: 33, button2: 0
2018/04/29 11:01:07 - Used command item 6462 1
2018/04/29 11:01:12 - Used command item 7562 1
2018/04/29 11:01:13 - Dropped 1 x Tomato seed from slot: 4 at [84,85,0],[52,53]
2018/04/29 11:01:14 - Dropped 1 x White tree shoot from slot: 3 at [84,85,0],[52,53]
2018/04/29 11:01:16 - Dropped 1 x Chilli con carne from slot: 2 at [84,85,0],[52,53]
2018/04/29 11:01:17 - Dropped 1 x Bones from slot: 1 at [84,85,0],[52,53]
2018/04/29 11:01:24 - Used command item 7462 1
2018/04/29 11:01:26 - Equipped item: 7462, into slot: 1, on inter: 149
2018/04/29 11:01:28 - Attacked npc: 2042, at location: [90,84,0],[50,52]
2018/04/29 11:01:29 - Pressed 548, button: 34, button2: 0
2018/04/29 11:03:47 - Used command tele 2200 3055
2018/04/29 11:04:09 - Used command tele 50 50
2018/04/29 11:04:19 - Used command tele 80 80
2018/04/29 11:04:27 - Used command tele 800 800
2018/04/29 15:44:15 - Logged in from 127.0.0.1 and mac 0A-00-27-00-00-00.
2018/04/29 15:44:22 - Pressed 378, button: 6, button2: 0
2018/04/29 15:44:25 - Pressed 548, button: 34, button2: 0
2018/04/29 15:44:25 - Pressed 548, button: 33, button2: 0
2018/04/29 15:44:33 - Used command tele 2200 3055
2018/04/29 15:44:40 - Used command item 11212 1000
2018/04/29 15:44:41 - Equipped item: 11212, into slot: 3, on inter: 149
2018/04/29 15:44:54 - Attacked npc: 2042, at location: [81,78,0],[49,54]
2018/04/29 15:44:56 - Attacked npc: 2042, at location: [81,78,0],[49,54]
2018/04/29 15:45:38 - Pressed 548, button: 35, button2: 0
2018/04/29 15:45:38 - Pressed 271, button: 43, button2: 0
2018/04/29 15:45:39 - Attacked npc: 2042, at location: [81,78,0],[49,54]
2018/04/29 15:47:12 - Pressed 548, button: 16, button2: 0
2018/04/29 15:47:13 - Pressed 182, button: 6, button2: 0
2018/04/29 15:47:15 - Pressed 548, button: 33, button2: 0
2018/04/29 15:48:24 - Logged in from 127.0.0.1 and mac 0A-00-27-00-00-00.
2018/04/29 15:54:25 - Pressed 378, button: 6, button2: 0
2018/04/29 15:54:32 - Used command tele 2200 3055
2018/04/29 15:57:14 - Attacked npc: 2042, at location: [81,206,0],[49,54]
2018/04/29 16:03:07 - Said ""ld.
2018/04/29 16:03:17 - Attacked npc: 2042, at location: [82,217,0],[50,49]
2018/04/29 16:08:48 - Logged in from 127.0.0.1 and mac 0A-00-27-00-00-00.
2018/04/29 16:09:08 - Pressed 378, button: 6, button2: 0
2018/04/29 16:09:12 - Used command tele 2200 3055
2018/04/29 16:18:06 - Pressed 548, button: 34, button2: 0
2018/04/29 16:18:08 - Pressed 548, button: 31, button2: 0
2018/04/29 16:18:10 - Pressed 548, button: 32, button2: 0
2018/04/29 16:18:11 - Pressed 548, button: 30, button2: 0
2018/04/29 16:18:11 - Pressed 548, button: 31, button2: 0
2018/04/29 16:18:13 - Pressed 548, button: 32, button2: 0
2018/04/29 16:18:13 - Pressed 548, button: 33, button2: 0
2018/04/29 16:18:14 - Pressed 548, button: 34, button2: 0
2018/04/29 16:18:15 - Pressed 548, button: 32, button2: 0
2018/04/29 16:18:16 - Pressed 548, button: 31, button2: 0
2018/04/29 16:18:17 - Pressed 320, button: 126, button2: 0
2018/04/29 16:18:18 - Pressed 499, button: 11, button2: 0
2018/04/29 16:18:19 - Pressed 499, button: 10, button2: 0
2018/04/29 16:18:20 - Pressed 499, button: 10, button2: 0
2018/04/29 16:18:20 - Pressed 499, button: 11, button2: 0
2018/04/29 16:18:21 - Pressed 499, button: 10, button2: 0
2018/04/29 16:18:21 - Pressed 499, button: 10, button2: 0
2018/04/29 16:18:21 - Pressed 499, button: 10, button2: 0
2018/04/29 16:18:22 - Pressed 499, button: 10, button2: 0
2018/04/29 16:18:22 - Pressed 499, button: 11, button2: 0
2018/04/29 16:18:22 - Pressed 499, button: 11, button2: 0
2018/04/29 16:18:22 - Pressed 499, button: 11, button2: 0
2018/04/29 16:18:22 - Pressed 499, button: 10, button2: 0
2018/04/29 16:18:23 - Pressed 499, button: 10, button2: 0
2018/04/29 16:18:23 - Closed Interface: 499
2018/04/29 16:18:24 - Pressed 320, button: 129, button2: 0
2018/04/29 16:18:25 - Pressed 499, button: 11, button2: 0
2018/04/29 16:18:26 - Closed Interface: 499
2018/04/29 16:18:27 - Pressed 320, button: 129, button2: 0
2018/04/29 16:18:28 - Closed Interface: 499
2018/04/29 16:18:28 - Pressed 320, button: 126, button2: 0
2018/04/29 16:18:30 - Pressed 320, button: 123, button2: 0
2018/04/29 16:18:31 - Pressed 320, button: 123, button2: 0
2018/04/29 16:18:31 - Closed Interface: 499
2018/04/29 16:18:32 - Pressed 320, button: 123, button2: 0
2018/04/29 16:18:33 - Closed Interface: 499
2018/04/29 16:18:33 - Pressed 320, button: 124, button2: 0
2018/04/29 16:18:42 - Pressed 320, button: 144, button2: 0
2018/04/29 16:18:42 - Pressed 320, button: 144, button2: 0
2018/04/29 16:18:42 - Pressed 320, button: 144, button2: 0
2018/04/29 16:18:42 - Pressed 320, button: 144, button2: 0
2018/04/29 16:19:54 - Logged in from 127.0.0.1 and mac 0A-00-27-00-00-00.
2018/04/29 16:20:00 - Pressed 378, button: 6, button2: 0
2018/04/29 23:31:48 - Logged in from 127.0.0.1 and mac 0A-00-27-00-00-00.
2018/04/29 23:31:49 - Pressed 378, button: 6, button2: 0
2018/04/29 23:31:56 - Used command tele 2200 3055
2018/04/29 23:33:07 - Attacked npc: 2042, at location: [81,78,0],[49,54]
2018/04/29 23:34:41 - Logged in from 127.0.0.1 and mac 0A-00-27-00-00-00.
2018/04/29 23:34:41 - Pressed 378, button: 6, button2: 0
2018/04/29 23:34:48 - Used command tele 2200 3055
2018/04/29 23:35:00 - Attacked npc: 2042, at location: [90,84,0],[50,52]
2018/04/29 23:37:10 - Pressed 548, button: 30, button2: 0
2018/04/29 23:37:23 - Attacked npc: 2042, at location: [81,78,0],[49,54]
2018/04/29 23:37:25 - Attacked npc: 2042, at location: [81,78,0],[49,54]
2018/04/29 23:37:26 - Attacked npc: 2042, at location: [81,78,0],[49,54]
2018/04/29 23:37:34 - Attacked npc: 2042, at location: [73,85,0],[49,53]
2018/04/29 23:38:35 - Attacked npc: 2042, at location: [81,78,0],[49,54]
2018/04/29 23:38:38 - Attacked npc: 2042, at location: [81,78,0],[49,54]
2018/04/29 23:38:49 - Pressed 548, button: 33, button2: 0
2018/04/29 23:38:50 - Clicked item: 526, on inter: 149, in slot: 1.
2018/04/29 23:38:53 - Attacked npc: 2042, at location: [81,78,0],[49,54]
2018/04/29 23:39:37 - Logged in from 127.0.0.1 and mac 0A-00-27-00-00-00.
2018/04/29 23:39:37 - Pressed 378, button: 6, button2: 0
2018/04/29 23:39:50 - Attacked npc: 2042, at location: [82,89,0],[50,49]
2018/04/29 23:41:05 - Used command obj 11700
2018/04/29 23:41:21 - Attacked npc: 2042, at location: [82,89,0],[50,49]
2018/04/29 23:41:35 - Attacked npc: 2042, at location: [73,85,0],[49,53]
2018/04/29 23:41:47 - Said :ld.
2018/04/29 23:42:07 - Attacked npc: 2042, at location: [81,78,0],[49,54]
2018/04/29 23:47:32 - Used command item 393 1
2018/04/29 23:47:36 - Used command item 391 10
2018/04/29 23:47:38 - Dropped 1 x Burnt manta ray from slot: 3 at [83,84,0],[51,52]
2018/04/29 23:47:39 - Clicked item: 391, on inter: 149, in slot: 7.
2018/04/29 23:47:40 - Clicked item: 391, on inter: 149, in slot: 6.
2018/04/29 23:47:42 - Pressed 548, button: 35, button2: 0
2018/04/29 23:47:45 - Attacked npc: 2042, at location: [81,78,0],[49,54]
2018/04/29 23:47:49 - Attacked npc: 2042, at location: [81,78,0],[49,54]
2018/04/29 23:48:58 - Used command obj 11700
2018/04/29 23:49:13 - Used command obj 11700
2018/04/29 23:49:17 - Used command pos
2018/04/29 23:51:16 - Attacked npc: 2042, at location: [73,85,0],[49,53]
2018/04/29 23:51:20 - Attacked npc: 2042, at location: [73,85,0],[49,53]
2018/04/29 23:51:23 - Used command obj 11700
2018/04/30 00:06:35 - Logged in from 127.0.0.1 and mac 0A-00-27-00-00-00.
2018/04/30 00:06:36 - Pressed 378, button: 6, button2: 0
2018/04/30 00:06:41 - Used command tele 2200 3055
2018/04/30 00:06:53 - Attacked npc: 2042, at location: [90,84,0],[50,52]
2018/04/30 00:07:02 - Attacked npc: 2042, at location: [90,84,0],[50,52]
2018/04/30 00:07:07 - Attacked npc: 2042, at location: [90,84,0],[50,52]
2018/04/30 00:07:09 - Said lol.
2018/04/30 00:09:39 - Logged in from 127.0.0.1 and mac 0A-00-27-00-00-00.
2018/04/30 00:09:40 - Pressed 378, button: 6, button2: 0
2018/04/30 00:09:43 - Used command tele 2200 3055
2018/04/30 00:09:56 - Clicked item: 391, on inter: 149, in slot: 4.
2018/04/30 00:09:56 - Attacked npc: 2042, at location: [82,89,0],[50,49]
2018/04/30 00:10:01 - Attacked npc: 2042, at location: [82,89,0],[50,49]
2018/04/30 00:10:03 - Attacked npc: 2042, at location: [82,89,0],[50,49]
2018/04/30 00:10:13 - Pressed 548, button: 36, button2: 0
2018/04/30 00:10:13 - Pressed 548, button: 35, button2: 0
2018/04/30 00:10:13 - Pressed 271, button: 41, button2: 0
2018/04/30 00:10:15 - Pressed 271, button: 39, button2: 0
2018/04/30 00:10:15 - Pressed 548, button: 33, button2: 0
2018/04/30 00:10:17 - Clicked item: 391, on inter: 149, in slot: 5.
2018/04/30 00:10:17 - Attacked npc: 2042, at location: [82,89,0],[50,49]
2018/04/30 00:10:22 - Clicked item: 391, on inter: 149, in slot: 8.
2018/04/30 00:11:52 - Logged in from 127.0.0.1 and mac 0A-00-27-00-00-00.
2018/04/30 00:11:53 - Pressed 378, button: 6, button2: 0
2018/04/30 00:11:57 - Used command tele 2200 3055
2018/04/30 00:12:08 - Attacked npc: 2042, at location: [81,78,0],[49,54]
2018/04/30 00:12:21 - Attacked npc: 2042, at location: [81,78,0],[49,54]
2018/04/30 00:13:18 - Logged in from 127.0.0.1 and mac 0A-00-27-00-00-00.
2018/04/30 00:13:19 - Pressed 378, button: 6, button2: 0
2018/04/30 00:13:24 - Used command tele 2200 3055
2018/04/30 00:13:26 - Pressed 548, button: 16, button2: 0
2018/04/30 00:13:28 - Pressed 182, button: 6, button2: 0
2018/04/30 00:13:33 - Logged in from 127.0.0.1 and mac 0A-00-27-00-00-00.
2018/04/30 00:13:34 - Pressed 378, button: 6, button2: 0
2018/04/30 00:14:24 - Logged in from 127.0.0.1 and mac 0A-00-27-00-00-00.
2018/04/30 00:14:24 - Pressed 378, button: 6, button2: 0
2018/04/30 00:14:35 - Attacked npc: 2042, at location: [73,85,0],[49,53]
2018/04/30 00:15:53 - Logged in from 127.0.0.1 and mac 0A-00-27-00-00-00.
2018/04/30 00:15:55 - Pressed 378, button: 6, button2: 0
2018/04/30 00:17:36 - Logged in from 127.0.0.1 and mac 0A-00-27-00-00-00.
2018/04/30 00:17:37 - Pressed 378, button: 6, button2: 0
2018/04/30 00:18:35 - Logged in from 127.0.0.1 and mac 0A-00-27-00-00-00.
2018/04/30 00:18:35 - Pressed 378, button: 6, button2: 0
2018/04/30 00:18:45 - Attacked npc: 2042, at location: [73,85,0],[49,53]
2018/04/30 00:19:43 - Logged in from 127.0.0.1 and mac 0A-00-27-00-00-00.
2018/04/30 00:19:43 - Pressed 378, button: 6, button2: 0
2018/04/30 00:19:51 - Attacked npc: 2042, at location: [82,89,0],[50,49]
2018/04/30 00:22:59 - Logged in from 127.0.0.1 and mac 0A-00-27-00-00-00.
2018/04/30 00:23:00 - Pressed 378, button: 6, button2: 0
2018/04/30 00:25:57 - Logged in from 127.0.0.1 and mac 0A-00-27-00-00-00.
2018/04/30 00:25:57 - Pressed 378, button: 6, button2: 0
2018/04/30 00:28:08 - Logged in from 127.0.0.1 and mac 0A-00-27-00-00-00.
2018/04/30 00:28:09 - Pressed 378, button: 6, button2: 0
2018/04/30 00:33:43 - Logged in from 127.0.0.1 and mac 0A-00-27-00-00-00.
2018/04/30 00:33:44 - Pressed 378, button: 6, button2: 0
2018/04/30 00:34:19 - Logged in from 127.0.0.1 and mac 0A-00-27-00-00-00.
2018/04/30 00:34:20 - Pressed 378, button: 6, button2: 0
2018/04/30 00:34:32 - Attacked npc: 2042, at location: [73,85,0],[49,53]
2018/04/30 00:35:39 - Logged in from 127.0.0.1 and mac 0A-00-27-00-00-00.
2018/04/30 00:35:42 - Pressed 378, button: 6, button2: 0
2018/04/30 00:35:53 - Attacked npc: 2042, at location: [90,84,0],[50,52]
2018/04/30 00:35:55 - Attacked npc: 2042, at location: [90,84,0],[50,52]
2018/04/30 00:36:00 - Attacked npc: 2042, at location: [90,84,0],[50,52]
2018/04/30 00:36:02 - Attacked npc: 2042, at location: [90,84,0],[50,52]
2018/04/30 00:37:15 - Logged in from 127.0.0.1 and mac 0A-00-27-00-00-00.
2018/04/30 00:37:16 - Pressed 378, button: 6, button2: 0
2018/04/30 00:37:25 - Attacked npc: 2042, at location: [81,78,0],[49,54]
2018/04/30 00:38:21 - Logged in from 127.0.0.1 and mac 0A-00-27-00-00-00.
2018/04/30 00:38:23 - Pressed 378, button: 6, button2: 0
2018/04/30 00:38:27 - Used command pnpc 2042
2018/04/30 00:38:39 - Used command anim 5069
2018/04/30 00:39:01 - Used command gfx 1045
2018/04/30 00:39:06 - Used command gfx 1045
2018/04/30 00:39:13 - Used command pnpc -1
2018/04/30 00:39:19 - Used command gfx 1045
2018/04/30 00:39:52 - Logged in from 127.0.0.1 and mac 0A-00-27-00-00-00.
2018/04/30 00:39:53 - Pressed 378, button: 6, button2: 0
2018/04/30 00:43:11 - Pressed 548, button: 16, button2: 0
2018/04/30 10:39:19 - Logged in from 127.0.0.1 and mac 0A-00-27-00-00-00.
2018/04/30 10:39:21 - Pressed 378, button: 6, button2: 0
2018/04/30 10:42:18 - Logged in from 127.0.0.1 and mac 0A-00-27-00-00-00.
2018/04/30 10:42:19 - Pressed 378, button: 6, button2: 0
2018/04/30 10:42:24 - Said :tele 2200 3055.
2018/04/30 10:42:28 - Used command tele 2200 3055
2018/04/30 10:43:06 - Logged in from 127.0.0.1 and mac 0A-00-27-00-00-00.
2018/04/30 10:43:07 - Pressed 378, button: 6, button2: 0
2018/04/30 10:43:14 - Used command tele 2200 3055
2018/04/30 10:43:27 - Attacked npc: 2042, at location: [82,89,0],[50,49]
2018/04/30 10:44:52 - Logged in from 127.0.0.1 and mac 0A-00-27-00-00-00.
2018/04/30 10:44:53 - Pressed 378, button: 6, button2: 0
2018/04/30 10:45:00 - Used command tele 2200 3055
2018/04/30 10:47:54 - Logged in from 127.0.0.1 and mac 0A-00-27-00-00-00.
2018/04/30 10:47:55 - Pressed 378, button: 6, button2: 0
2018/04/30 10:47:59 - Used command tele 2200 3055
2018/04/30 10:48:51 - Logged in from 127.0.0.1 and mac 0A-00-27-00-00-00.
2018/04/30 10:48:52 - Pressed 378, button: 6, button2: 0
2018/04/30 10:48:56 - Said :tele 2200 3055.
2018/04/30 10:49:00 - Used command tele 2200 3055
2018/04/30 11:33:16 - Logged in from 127.0.0.1 and mac 0A-00-27-00-00-00.
2018/04/30 11:33:21 - Pressed 378, button: 6, button2: 0
2018/04/30 11:33:21 - Pressed 378, button: 6, button2: 0
2018/04/30 11:33:30 - Used command tele 2200 3055
2018/04/30 11:37:23 - Attacked npc: 2042, at location: [82,89,0],[50,49]
2018/04/30 11:37:31 - Attacked npc: 2042, at location: [82,89,0],[50,49]
2018/04/30 11:37:31 - Attacked npc: 2042, at location: [82,89,0],[50,49]
2018/04/30 11:37:31 - Attacked npc: 2042, at location: [82,89,0],[50,49]
2018/04/30 11:37:33 - Attacked npc: 2042, at location: [82,89,0],[50,49]
2018/04/30 11:38:38 - Logged in from 127.0.0.1 and mac 0A-00-27-00-00-00.
2018/04/30 11:38:39 - Pressed 378, button: 6, button2: 0
2018/04/30 11:38:44 - Used command tele 2200 3055
2018/04/30 11:39:00 - Attacked npc: 2042, at location: [82,89,0],[50,49]
2018/04/30 11:39:05 - Attacked npc: 2042, at location: [82,89,0],[50,49]
2018/04/30 12:13:49 - Logged in from 127.0.0.1 and mac 0A-00-27-00-00-00.
2018/04/30 12:13:54 - Pressed 378, button: 6, button2: 0
2018/04/30 12:13:57 - Used command tele 3100 3500
2018/04/30 12:14:07 - Click1 npc: 4398, at location: [3090,3487,0],[50,55]
2018/04/30 12:14:10 - Closed Interface: 668
2018/04/30 12:14:23 - Used command npc 3248
2018/04/30 12:14:26 - Click1 npc: 3248, at location: [3086,3489,0],[54,49]
2018/04/30 12:14:28 - Pressed2 64, button: 3
2018/04/30 12:19:20 - Used command npc 3248
2018/04/30 12:19:21 - Click1 npc: 3248, at location: [3086,3491,0],[54,51]
2018/04/30 12:19:23 - Click1 npc: 3248, at location: [3086,3491,0],[54,51]
2018/04/30 12:19:24 - Pressed2 64, button: 3
2018/04/30 12:51:22 - Closed Interface: 12
2018/04/30 12:52:22 - Click1 npc: 403, at location: [3148,9914,0],[52,50]
2018/04/30 12:52:22 - Click1 npc: 403, at location: [3148,9914,0],[52,50]
2018/04/30 12:52:26 - Click2 npc: 403, at location: [3148,9915,0],[52,51]
2018/04/30 12:52:27 - Click1 npc: 403, at location: [3148,9915,0],[52,51]
2018/04/30 12:52:29 - Pressed2 228, button: 1
2018/04/30 12:52:30 - Pressed2 228, button: 1
2018/04/30 12:52:31 - Click1 npc: 403, at location: [3148,9915,0],[52,51]
2018/04/30 12:52:35 - Click4 npc: 403, at location: [3147,9915,0],[51,51]
2018/04/30 12:52:39 - Click1 npc: 403, at location: [3147,9915,0],[51,51]
2018/04/30 12:52:42 - Pressed 548, button: 36, button2: 0
2018/04/30 12:52:42 - Pressed 665, button: 0, button2: 0
2018/04/30 12:52:43 - Pressed 548, button: 33, button2: 0
2018/04/30 13:19:22 - Closed Interface: 12
2018/04/30 13:19:28 - Click1 npc: 4398, at location: [3087,3488,0],[55,48]
2018/04/30 13:19:28 - Click1 npc: 4398, at location: [3088,3487,0],[48,55]
2018/04/30 13:19:28 - Click1 npc: 4398, at location: [3088,3487,0],[48,55]
2018/04/30 13:19:51 - Pressed 548, button: 34, button2: 0
2018/04/30 13:19:51 - Clicked item1 11828,4,387,28.
2018/04/30 13:19:52 - Clicked item1 11830,7,387,28.
2018/04/30 13:20:02 - Pressed 548, button: 33, button2: 0
2018/04/30 13:20:27 - Pressed 548, button: 35, button2: 0
2018/04/30 13:20:28 - Pressed 548, button: 36, button2: 0
2018/04/30 13:20:29 - Pressed 665, button: 0, button2: 0
2018/04/30 13:20:29 - Pressed 548, button: 33, button2: 0
2018/04/30 13:22:26 - Closed Interface: 12
2018/04/30 17:08:18 - Logged in from 127.0.0.1 and mac 0A-00-27-00-00-00.
2018/04/30 17:08:20 - Pressed 378, button: 6, button2: 0
2018/04/30 17:08:24 - Pressed 548, button: 36, button2: 0
2018/04/30 17:08:27 - Pressed 665, button: 21, button2: 0
2018/04/30 17:08:28 - Pressed 665, button: 0, button2: 0
2018/04/30 17:08:32 - Pressed 665, button: 0, button2: 0
2018/04/30 17:08:32 - Pressed 665, button: 0, button2: 0
2018/04/30 17:08:32 - Pressed 665, button: 0, button2: 0
2018/04/30 17:08:33 - Pressed 665, button: 0, button2: 0
2018/04/30 17:08:34 - Pressed 665, button: 0, button2: 0
2018/04/30 17:08:35 - Pressed 548, button: 34, button2: 0
2018/04/30 17:08:35 - Pressed 548, button: 33, button2: 0
2018/04/30 17:08:37 - Pressed 548, button: 34, button2: 0
2018/04/30 17:08:38 - Pressed 548, button: 33, button2: 0
2018/04/30 17:09:13 - Closed Interface: 12
2018/04/30 17:09:15 - Pressed 548, button: 34, button2: 0
2018/04/30 17:09:16 - Pressed 548, button: 33, button2: 0
2018/04/30 17:09:17 - Pressed 548, button: 32, button2: 0
2018/04/30 17:09:18 - Pressed 548, button: 33, button2: 0
2018/04/30 17:09:28 - Used command tele 2200 3055
2018/04/30 17:12:59 - Used command tele 2200 3055
2018/04/30 17:13:29 - Attacked npc: 2042, at location: [82,89,0],[50,49]
2018/04/30 17:13:32 - Attacked npc: 2042, at location: [82,89,0],[50,49]
2018/04/30 17:13:35 - Attacked npc: 2042, at location: [82,89,0],[50,49]
2018/04/30 17:13:37 - Attacked npc: 2042, at location: [82,89,0],[50,49]
2018/04/30 17:14:09 - Attacked npc: 2042, at location: [82,89,0],[50,49]
2018/04/30 17:14:14 - Attacked npc: 2042, at location: [82,89,0],[50,49]
2018/04/30 17:14:26 - Pressed 548, button: 16, button2: 0
2018/04/30 17:14:26 - Pressed 182, button: 6, button2: 0
2018/04/30 17:14:28 - Pressed 182, button: 6, button2: 0
2018/04/30 17:16:09 - Logged in from 127.0.0.1 and mac 0A-00-27-00-00-00.
2018/04/30 17:16:12 - Pressed 378, button: 6, button2: 0
2018/04/30 17:16:17 - Equipped item: 11828, into slot: 3, on inter: 149
2018/04/30 17:16:17 - Equipped item: 11830, into slot: 6, on inter: 149
2018/04/30 17:16:18 - Pressed 548, button: 36, button2: 0
2018/04/30 17:16:20 - Pressed 665, button: 0, button2: 0
2018/04/30 17:16:24 - Pressed 548, button: 33, button2: 0
2018/04/30 17:16:25 - Pressed 548, button: 30, button2: 0
2018/04/30 17:16:28 - Click1 npc: 4398, at location: [3088,3486,0],[48,54]
2018/04/30 17:16:32 - Pressed 548, button: 33, button2: 0
2018/04/30 17:17:23 - Used command tele 2200 3055
2018/04/30 17:17:48 - Attacked npc: 2042, at location: [82,89,0],[50,49]
2018/04/30 17:17:49 - Attacked npc: 2042, at location: [82,89,0],[50,49]
2018/04/30 17:17:55 - Attacked npc: 2042, at location: [82,89,0],[50,49]
2018/04/30 17:19:50 - Logged in from 127.0.0.1 and mac 0A-00-27-00-00-00.
2018/04/30 17:19:52 - Pressed 378, button: 6, button2: 0
2018/04/30 17:19:58 - Used command tele 2200 3055
2018/04/30 17:23:19 - Attacked npc: 2042, at location: [90,84,0],[50,52]
2018/04/30 17:23:20 - Attacked npc: 2042, at location: [90,84,0],[50,52]
2018/04/30 17:27:16 - Logged in from 127.0.0.1 and mac 0A-00-27-00-00-00.
2018/04/30 17:27:45 - Pressed 378, button: 6, button2: 0
2018/04/30 17:27:56 - Used command tele 2200 3055
2018/04/30 17:44:48 - Logged in from 127.0.0.1 and mac 0A-00-27-00-00-00.
2018/04/30 17:44:50 - Pressed 378, button: 6, button2: 0
2018/04/30 17:44:53 - Used command tele 2200 3055
2018/04/30 17:45:05 - Attacked npc: 2042, at location: [82,89,0],[50,49]
2018/04/30 17:45:06 - Pressed 548, button: 30, button2: 0
2018/04/30 17:45:08 - Pressed 548, button: 33, button2: 0
2018/04/30 17:45:12 - Attacked npc: 2042, at location: [82,89,0],[50,49]
2018/04/30 17:45:15 - Pressed 548, button: 16, button2: 0
2018/04/30 17:45:16 - Pressed 182, button: 6, button2: 0
2018/04/30 23:18:08 - Logged in from 127.0.0.1 and mac 0A-00-27-00-00-00.
2018/04/30 23:18:11 - Pressed 378, button: 6, button2: 0
2018/04/30 23:18:21 - Click1 npc: 4398, at location: [3088,3489,0],[48,49]
2018/04/30 23:18:32 - Closed Interface: 668
2018/04/30 23:19:30 - Used command tele 2200 3055
2018/04/30 23:19:51 - Attacked npc: 2042, at location: [82,89,0],[50,49]
2018/04/30 23:22:24 - Attacked npc: 2042, at location: [73,85,0],[49,53]
2018/04/30 23:22:29 - Used command pos
2018/04/30 23:22:49 - Used command pos
2018/04/30 23:25:05 - Used command tele 20 20.3
2018/04/30 23:25:08 - Used command tele 20 20
2018/04/30 23:25:12 - Used command tele 80 80
2018/04/30 23:25:16 - Used command tele 150 150
2018/04/30 23:25:26 - Used command tele 3200 3200
2018/04/30 23:26:04 - Pressed 548, button: 16, button2: 0
2018/04/30 23:26:04 - Pressed 182, button: 6, button2: 0
2018/04/30 23:27:05 - Logged in from 127.0.0.1 and mac 0A-00-27-00-00-00.
2018/04/30 23:27:11 - Pressed 378, button: 6, button2: 0
2018/04/30 23:28:37 - Logged in from 127.0.0.1 and mac 0A-00-27-00-00-00.
2018/04/30 23:28:38 - Pressed 378, button: 6, button2: 0
2018/04/30 23:28:48 - Attacked npc: 2042, at location: [82,89,0],[50,49]
2018/04/30 23:28:59 - Attacked npc: 2042, at location: [82,89,0],[50,49]
2018/04/30 23:29:03 - Clicked item: 391, on inter: 149, in slot: 4.
2018/04/30 23:29:03 - Equipped item: 11830, into slot: 6, on inter: 149
2018/04/30 23:29:04 - Equipped item: 11828, into slot: 3, on inter: 149
2018/04/30 23:29:05 - Equipped item: 19553, into slot: 2, on inter: 149
2018/04/30 23:29:06 - Attacked npc: 2042, at location: [82,89,0],[50,49]
2018/04/30 23:29:07 - Clicked item: 391, on inter: 149, in slot: 9.
2018/04/30 23:29:26 - Used command pos
2018/04/30 23:29:31 - Used command pos
2018/04/30 23:34:57 - Logged in from 127.0.0.1 and mac 0A-00-27-00-00-00.
2018/04/30 23:34:58 - Pressed 378, button: 6, button2: 0
2018/04/30 23:36:06 - Logged in from 127.0.0.1 and mac 0A-00-27-00-00-00.
2018/04/30 23:36:06 - Pressed 378, button: 6, button2: 0
2018/04/30 23:36:17 - Pressed 548, button: 30, button2: 0
2018/04/30 23:37:07 - Logged in from 127.0.0.1 and mac 0A-00-27-00-00-00.
2018/04/30 23:37:08 - Pressed 378, button: 6, button2: 0
2018/04/30 23:42:22 - Attacked npc: 2042, at location: [82,89,0],[50,49]
2018/04/30 23:45:09 - Logged in from 127.0.0.1 and mac 0A-00-27-00-00-00.
2018/04/30 23:45:09 - Pressed 378, button: 6, button2: 0
