2018/04/25 18:20:53 - Logged in from 127.0.0.1 and mac 0A-00-27-00-00-00.
2018/04/25 18:20:55 - Pressed 378, button: 6, button2: 0
2018/04/25 18:21:20 - Pressed 649, button: 4, button2: 0
2018/04/25 18:21:22 - Pressed 269, button: 127, button2: 0
2018/04/25 18:21:24 - Pressed 269, button: 123, button2: 0
2018/04/25 18:21:25 - Pressed 269, button: 124, button2: 0
2018/04/25 18:21:26 - Pressed 269, button: 123, button2: 0
2018/04/25 18:21:28 - Pressed 269, button: 106, button2: 0
2018/04/25 18:21:29 - Pressed 269, button: 106, button2: 0
2018/04/25 18:21:30 - Pressed 269, button: 105, button2: 0
2018/04/25 18:21:30 - Pressed 269, button: 105, button2: 0
2018/04/25 18:21:31 - Pressed 269, button: 105, button2: 0
2018/04/25 18:21:31 - Pressed 269, button: 105, button2: 0
2018/04/25 18:21:32 - Pressed 269, button: 108, button2: 0
2018/04/25 18:21:32 - Pressed 269, button: 108, button2: 0
2018/04/25 18:21:33 - Pressed 269, button: 108, button2: 0
2018/04/25 18:21:33 - Pressed 269, button: 108, button2: 0
2018/04/25 18:21:34 - Pressed 269, button: 115, button2: 0
2018/04/25 18:21:35 - Pressed 269, button: 107, button2: 0
2018/04/25 18:21:37 - Pressed 269, button: 109, button2: 0
2018/04/25 18:21:38 - Pressed 269, button: 109, button2: 0
2018/04/25 18:21:39 - Pressed 269, button: 110, button2: 0
2018/04/25 18:21:40 - Pressed 269, button: 110, button2: 0
2018/04/25 18:21:40 - Pressed 269, button: 110, button2: 0
2018/04/25 18:21:40 - Pressed 269, button: 110, button2: 0
2018/04/25 18:21:40 - Pressed 269, button: 110, button2: 0
2018/04/25 18:21:41 - Pressed 269, button: 110, button2: 0
2018/04/25 18:21:41 - Pressed 269, button: 110, button2: 0
2018/04/25 18:21:41 - Pressed 269, button: 110, button2: 0
2018/04/25 18:21:42 - Pressed 269, button: 110, button2: 0
2018/04/25 18:21:43 - Pressed 269, button: 117, button2: 0
2018/04/25 18:21:45 - Pressed 269, button: 105, button2: 0
2018/04/25 18:21:45 - Pressed 269, button: 105, button2: 0
2018/04/25 18:21:46 - Pressed 269, button: 105, button2: 0
2018/04/25 18:21:47 - Pressed 269, button: 105, button2: 0
2018/04/25 18:21:48 - Pressed 269, button: 108, button2: 0
2018/04/25 18:21:52 - Pressed 269, button: 123, button2: 0
2018/04/25 18:21:54 - Pressed 269, button: 99, button2: 0
2018/04/25 18:21:56 - Closed Interface: 275
2018/04/25 18:22:30 - Pressed 548, button: 32, button2: 0
2018/04/25 18:22:30 - Pressed 548, button: 33, button2: 0
2018/04/25 18:22:32 - Pressed 548, button: 31, button2: 0
2018/04/25 18:22:32 - Pressed 548, button: 34, button2: 0
2018/04/25 18:22:33 - Pressed 548, button: 35, button2: 0
2018/04/25 18:22:33 - Pressed 548, button: 36, button2: 0
2018/04/25 18:22:34 - Pressed 548, button: 33, button2: 0
2018/04/25 18:22:35 - Pressed 548, button: 32, button2: 0
2018/04/25 18:22:35 - Pressed 548, button: 31, button2: 0
2018/04/25 18:22:36 - Pressed 548, button: 34, button2: 0
2018/04/25 18:22:37 - Pressed 548, button: 35, button2: 0
2018/04/25 18:22:37 - Pressed 548, button: 36, button2: 0
2018/04/25 18:22:38 - Pressed 548, button: 19, button2: 0
2018/04/25 18:22:38 - Pressed 548, button: 14, button2: 0
2018/04/25 18:22:39 - Pressed 548, button: 15, button2: 0
2018/04/25 18:22:39 - Pressed 548, button: 16, button2: 0
2018/04/25 18:22:39 - Pressed 548, button: 17, button2: 0
2018/04/25 18:22:40 - Pressed 548, button: 18, button2: 0
2018/04/25 18:22:41 - Pressed 548, button: 30, button2: 0
2018/04/25 18:22:41 - Pressed 548, button: 31, button2: 0
2018/04/25 18:22:42 - Pressed 548, button: 32, button2: 0
2018/04/25 18:22:43 - Pressed 548, button: 33, button2: 0
2018/04/25 18:22:43 - Pressed 548, button: 16, button2: 0
2018/04/25 18:22:46 - Pressed 548, button: 226, button2: 0
2018/04/25 18:22:47 - Pressed 548, button: 101, button2: 0
2018/04/25 18:22:49 - Pressed 548, button: 34, button2: 0
2018/04/25 18:22:49 - Pressed 548, button: 33, button2: 0
2018/04/25 18:22:50 - Pressed 548, button: 36, button2: 0
2018/04/25 18:22:51 - Pressed 548, button: 35, button2: 0
2018/04/25 18:22:53 - Pressed 548, button: 36, button2: 0
2018/04/25 18:22:54 - Pressed 548, button: 35, button2: 0
2018/04/25 18:22:55 - Pressed 548, button: 36, button2: 0
2018/04/25 18:22:56 - Pressed 548, button: 35, button2: 0
2018/04/25 18:22:57 - Pressed 548, button: 34, button2: 0
2018/04/25 18:22:57 - Pressed 548, button: 33, button2: 0
2018/04/25 18:22:58 - Pressed 548, button: 32, button2: 0
2018/04/25 18:22:58 - Pressed 548, button: 31, button2: 0
2018/04/25 18:22:59 - Pressed 548, button: 30, button2: 0
2018/04/25 18:24:13 - Pressed 548, button: 33, button2: 0
2018/04/25 18:24:16 - Pressed 548, button: 33, button2: 0
2018/04/25 18:24:28 - Pressed 548, button: 17, button2: 0
2018/04/25 18:24:29 - Pressed 548, button: 30, button2: 0
2018/04/25 18:24:31 - Pressed 548, button: 33, button2: 0
2018/04/25 18:24:31 - Pressed 548, button: 34, button2: 0
2018/04/25 18:24:33 - Pressed 548, button: 33, button2: 0
2018/04/25 18:25:14 - Pressed 548, button: 36, button2: 0
2018/04/25 18:25:20 - Pressed 665, button: 15, button2: 0
2018/04/25 18:25:47 - Pressed 548, button: 17, button2: 0
2018/04/25 18:25:48 - Pressed 548, button: 18, button2: 0
2018/04/25 18:25:50 - Pressed 548, button: 33, button2: 0
2018/04/25 18:25:51 - Pressed 548, button: 34, button2: 0
2018/04/25 18:25:51 - Pressed 548, button: 35, button2: 0
2018/04/25 18:25:52 - Pressed 548, button: 36, button2: 0
2018/04/25 18:25:55 - Pressed 548, button: 30, button2: 0
2018/04/25 18:26:06 - Pressed 12, button: 120, button2: 0
2018/04/25 18:26:06 - Pressed 12, button: 119, button2: 0
2018/04/25 18:26:07 - Pressed 12, button: 119, button2: 0
2018/04/25 18:26:20 - Pressed 548, button: 33, button2: 0
2018/04/25 18:26:25 - Pressed 548, button: 30, button2: 0
2018/04/25 18:26:43 - Pressed 548, button: 33, button2: 0
2018/04/25 18:26:45 - Pressed 548, button: 101, button2: 0
2018/04/25 18:27:01 - Pressed 548, button: 31, button2: 0
2018/04/25 18:27:22 - Pressed 548, button: 101, button2: 0
2018/04/25 18:27:23 - Pressed 548, button: 30, button2: 0
2018/04/25 18:27:26 - Pressed 548, button: 31, button2: 0
2018/04/25 18:27:27 - Pressed 548, button: 32, button2: 0
2018/04/25 18:27:29 - Pressed 548, button: 19, button2: 0
2018/04/25 18:27:36 - Pressed 548, button: 34, button2: 0
2018/04/25 18:27:37 - Pressed 548, button: 33, button2: 0
2018/04/25 18:27:46 - Pressed 548, button: 34, button2: 0
2018/04/25 18:27:49 - Pressed 548, button: 33, button2: 0
2018/04/25 18:27:50 - Pressed 548, button: 34, button2: 0
2018/04/25 18:27:51 - Pressed 387, button: 51, button2: 0
2018/04/25 18:27:56 - Pressed 387, button: 51, button2: 0
2018/04/25 18:27:58 - Pressed 548, button: 33, button2: 0
2018/04/25 18:28:02 - Used command item 841 1
2018/04/25 18:28:04 - Equipped item: 841, into slot: 0, on inter: 149
2018/04/25 18:28:04 - Pressed 548, button: 34, button2: 0
2018/04/25 18:28:05 - Pressed 548, button: 33, button2: 0
2018/04/25 18:28:07 - Pressed 548, button: 34, button2: 0
2018/04/25 18:28:10 - Pressed 387, button: 51, button2: 0
2018/04/25 18:28:11 - Pressed 387, button: 50, button2: 0
2018/04/25 18:28:34 - Pressed 548, button: 16, button2: 0
2018/04/25 18:28:35 - Pressed 182, button: 6, button2: 0
